<?xml version="1.0" encoding="utf-8"?>
<!-- Generator: Adobe Illustrator 19.0.0, SVG Export Plug-In . SVG Version: 6.00 Build 0)  -->
<svg version="1.1" id="Layer_1" xmlns="http://www.w3.org/2000/svg" xmlns:xlink="http://www.w3.org/1999/xlink" x="0px" y="0px"
	 viewBox="0 0 678 308" style="enable-background:new 0 0 678 308;" xml:space="preserve">
<style type="text/css">
	.st0{fill:#272A33;}
	.st1{opacity:0.1;}
	.st2{fill:#FFFFFF;}
	.st3{clip-path:url(#XMLID_2_);}
	.st4{fill:#EFAB27;}
	.st5{clip-path:url(#XMLID_2_);fill:#FFFFFF;}
	.st6{clip-path:url(#XMLID_3_);fill:#FFFFFF;}
	.st7{clip-path:url(#XMLID_4_);fill:#FFFFFF;}
	.st8{clip-path:url(#XMLID_5_);fill:#FFFFFF;}
	.st9{clip-path:url(#XMLID_6_);fill:#FFFFFF;}
</style>
<g id="XMLID_72_">
	<g id="XMLID_556_">
		<rect id="XMLID_19_" x="0" class="st0" width="678" height="308"/>
		<g id="XMLID_15_" class="st1">
			<path id="XMLID_16_" class="st2" d="M675.5,2.5v303H2.5V2.5H675.5 M678,0H0v308h678V0L678,0z"/>
		</g>
	</g>
	<g id="XMLID_73_">
		<g id="XMLID_74_">
			<defs>
				<rect id="XMLID_75_" x="0" y="0" width="678" height="308"/>
			</defs>
			<clipPath id="XMLID_2_">
				<use xlink:href="#XMLID_75_"  style="overflow:visible;"/>
			</clipPath>
			<g id="XMLID_340_" class="st3">
				<path id="XMLID_553_" class="st4" d="M132.9,77.8c-0.4,2.4-0.2,7.3,7.1,8.4c8.3,1.2,15.3-3.4,15.6,1.2
					c0.1-8.5-16.4,0.3-15.5-7.8c0.6-5.8,13.7,0.6,21.3-0.6c3.1-0.5,3.9-2.4,4.1-3.8c39.7,4.8,70.6,38.4,70.6,78.9
					c0,25.5-12.2,48.3-31.1,62.8c-8.6,6.6-16.9,5.3-16.9,5.3c-5.2,0.1-6.3-5.7-6.7-7.9l-0.1-0.3c-0.2-1.1-1.3-1.6-2.5-2.3
					c-1.1-0.5-2.3-1.2-3.3-2.3c-1.5-1.6-0.9-2.9-0.3-4.2c0.2-0.5,0.5-1,0.6-1.6c0.1-0.4,0-0.8-0.2-1c-0.5-0.7-1.8-0.9-3-1
					c-0.5-0.1-1-0.1-1.4-0.2c-0.9-0.2-0.9-2-0.9-3.8c0-0.9,0-1.9-0.1-2.6c-0.2-1.1-1.5-1.6-2.8-2.1c-1.5-0.6-3.2-1.2-3.7-2.8
					c-0.7-1.9,0.5-6.9,1.5-10.9c0.5-2.2,1-4.1,1.1-5.3c0.4-3.7,0-6.5-1.5-11.1c-1.6-4.9-1.3-13.1-0.4-16.3c0.9-3.3,1.2-8.2-0.1-10.5
					c-2-3.6-2.3-7.3-2-12.4c0.2-3.7,2.6-3.6,7.4-3.5c1.7,0,3.6,0.1,5.7,0c2.9-0.2,5.1-1,6.4-2.4c1.4-1.6,1.3-3.4,1.3-3.4l0-0.2
					l-21.3-0.2l0.1-2.7c2.9-1.4,2.8-4.9,2.8-4.9l0-0.2l-2.8-0.1c0.1-1.9,1.4-3,2.7-4c1.1-0.9,2.3-1.8,2.6-3.3
					c0.2-0.9,0.1-1.6-0.4-2.3c-0.9-1.2-2.7-1.6-3.3-1.7c0-2.7-2.6-3.6-2.6-3.6c-5.7-2.6-10.9,0-10.9,0c0,0-2.6,0.9-2.6,3.6
					c-0.6,0.1-2.4,0.5-3.3,1.7c-0.5,0.6-0.6,1.4-0.4,2.3c0.4,1.5,1.5,2.4,2.6,3.3c1.3,1.1,2.6,2.1,2.7,4l-2.8,0.1l0,0.2
					c0,0-0.1,3.5,2.8,4.9l0.1,2.7l-21.3,0.2l0,0.2c0,0.1-0.1,1.8,1.3,3.4c1.3,1.5,3.4,2.3,6.4,2.4c2.2,0.1,4.1,0.1,5.7,0
					c4.8-0.1,7.2-0.2,7.4,3.5c0.3,5.1,0,8.8-2,12.4c-1.3,2.4-1,7.2-0.1,10.5c0.9,3.3,1.3,11.5-0.3,16.3c-1.5,4.6-1.9,7.4-1.5,11.1
					c0.1,1.2,0.6,3.1,1.1,5.3c1,4,2.2,9,1.5,10.9c-0.6,1.6-2.2,2.2-3.7,2.8c-1.3,0.5-2.6,1-2.8,2.1c-0.1,0.7-0.1,1.7-0.1,2.6
					c0,1.7,0,3.6-0.9,3.8c-0.4,0.1-0.9,0.2-1.4,0.2c-1.2,0.2-2.5,0.3-3,1c-0.2,0.3-0.3,0.6-0.2,1c0.1,0.5,0.3,1.1,0.6,1.6
					c0.6,1.3,1.2,2.5-0.3,4.2c-1,1.1-2.2,1.7-3.3,2.3c-1.3,0.6-2.3,1.2-2.5,2.3l-0.1,0.3c-0.4,2.2-1.5,8-6.7,7.9
					c0,0-8.5,0.8-16.7-5.3c-19.2-14.5-31.1-37.3-31.1-62.8C75.3,118,99.6,87.5,132.9,77.8 M247.4,154c0-50-41.1-90.6-91.6-90.6
					S64.1,104,64.1,154s41.1,90.6,91.6,90.6S247.4,204,247.4,154"/>
				<path id="XMLID_552_" class="st4" d="M127.4,162.7c2.6,4.8,9.3,3.6,9.3,3.6c-1.1-1.9-2.6-3.5-4.4-4.2c-3-1.2-6.2-0.6-6.2-0.6
					C126.4,161.9,127.1,162.2,127.4,162.7"/>
				<path id="XMLID_551_" class="st4" d="M175.3,166.4c0,0,6.6,1.1,9.3-3.6c0.3-0.5,1-0.8,1.3-1.2c0,0-3.2-0.6-6.2,0.6
					C177.9,162.8,176.3,164.4,175.3,166.4"/>
				<path id="XMLID_550_" class="st2" d="M300.1,134.1c-2,9.7-5.4,14.6-17.4,13.8v-7.6c4.4,0.3,6.9-0.5,7.6-4.4l0.1-0.5l-11.9-41.7
					h8.5l4.7,18.5l2.7,12.7l2-12.6l3.9-18.6h9L300.1,134.1z"/>
			</g>
			<polygon id="XMLID_339_" class="st5" points="321.5,147.8 312.9,147.8 312.9,93.7 321.5,93.7 321.5,116.9 331.3,116.9 
				331.3,93.7 340.1,93.7 340.1,147.8 331.3,147.8 331.3,124.6 321.5,124.6 			"/>
			<polygon id="XMLID_338_" class="st5" points="355.2,147.8 346.3,147.8 346.3,93.7 354,93.7 354,128 357.1,116.1 364.2,93.7 
				373.6,93.7 373.6,147.8 365.9,147.8 365.9,109.7 362.4,123 			"/>
			<polygon id="XMLID_337_" class="st5" points="391,126.3 388.3,131.2 388.3,147.8 379.7,147.8 379.7,93.7 388.3,93.7 388.3,117.3 
				399.6,93.7 408.2,93.7 396.2,117.8 408.2,147.8 399.3,147.8 			"/>
			<path id="XMLID_112_" class="st5" d="M420.3,130.7h8.3l-4.1-27.4L420.3,130.7z M439.9,147.8h-8.7l-1.5-9.8h-10.6l-1.5,9.8h-7.9
				l8.8-54.1h12.6L439.9,147.8z"/>
			<g id="XMLID_106_" class="st3">
				<defs>
					<rect id="XMLID_107_" x="0" y="0" width="678" height="308"/>
				</defs>
				<clipPath id="XMLID_3_">
					<use xlink:href="#XMLID_107_"  style="overflow:visible;"/>
				</clipPath>
				<path id="XMLID_111_" class="st6" d="M441.5,140.2c3.9,0,5.2-0.5,5.3-5.6l1.4-40.9h24.3v54.1h-8.8v-46.4h-7.5l-0.9,32.7
					c-0.3,9.9-3.9,13.8-12.5,13.8h-1.3V140.2z"/>
				<path id="XMLID_108_" class="st6" d="M491.8,140.1c2.7,0,4.2-1.2,4.2-5.1v-8.1c0-3.9-1.5-5.1-4.2-5.1h-4.1v18.3H491.8z
					 M479.1,147.8V93.7h8.6v20.3h4.1c8.6,0,12.8,4.7,12.8,13.4v7c0,8.7-4.2,13.4-12.8,13.4H479.1z"/>
			</g>
			<polygon id="XMLID_105_" class="st5" points="518.3,147.8 509.7,147.8 509.7,93.7 518.3,93.7 518.3,116.9 528.1,116.9 
				528.1,93.7 536.9,93.7 536.9,147.8 528.1,147.8 528.1,124.6 518.3,124.6 			"/>
			<g id="XMLID_99_" class="st3">
				<defs>
					<rect id="XMLID_100_" x="0" y="0" width="678" height="308"/>
				</defs>
				<clipPath id="XMLID_4_">
					<use xlink:href="#XMLID_100_"  style="overflow:visible;"/>
				</clipPath>
				<path id="XMLID_101_" class="st7" d="M573.5,93.7h8.6v54.1h-8.6V93.7z M555.8,140.1c2.7,0,4.2-1.2,4.2-5.1v-8.1
					c0-3.9-1.5-5.1-4.2-5.1h-4.1v18.3H555.8z M543.1,147.8V93.7h8.6v20.3h4.1c8.6,0,12.8,4.7,12.8,13.4v7c0,8.7-4.2,13.4-12.8,13.4
					H543.1z"/>
			</g>
			<polygon id="XMLID_98_" class="st5" points="597,116.5 608.8,116.5 608.8,124.3 597,124.3 597,140.1 611.8,140.1 611.8,147.8 
				588.4,147.8 588.4,93.7 611.8,93.7 611.8,101.5 597,101.5 			"/>
			<polygon id="XMLID_97_" class="st5" points="292.3,192.7 289.6,197.7 289.6,214.3 281,214.3 281,160.2 289.6,160.2 289.6,183.7 
				300.9,160.2 309.5,160.2 297.5,184.3 309.5,214.3 300.7,214.3 			"/>
			<path id="XMLID_94_" class="st5" d="M321.6,197.1h8.3l-4.1-27.4L321.6,197.1z M341.2,214.3h-8.7l-1.5-9.8h-10.6l-1.5,9.8h-7.9
				l8.8-54.1h12.6L341.2,214.3z"/>
			<g id="XMLID_85_" class="st3">
				<defs>
					<rect id="XMLID_86_" x="0" y="0" width="678" height="308"/>
				</defs>
				<clipPath id="XMLID_5_">
					<use xlink:href="#XMLID_86_"  style="overflow:visible;"/>
				</clipPath>
				<path id="XMLID_93_" class="st8" d="M342.8,206.6c3.9,0,5.2-0.5,5.3-5.6l1.4-40.9h24.3v54.1h-8.8v-46.4h-7.5l-0.9,32.7
					c-0.3,9.9-3.9,13.8-12.5,13.8h-1.3V206.6z"/>
				<path id="XMLID_90_" class="st8" d="M393.1,206.5c2.7,0,4.2-1.2,4.2-5.1v-8.1c0-3.9-1.5-5.1-4.2-5.1H389v18.3H393.1z
					 M380.4,214.3v-54.1h8.6v20.3h4.1c8.6,0,12.8,4.7,12.8,13.4v7c0,8.7-4.2,13.4-12.8,13.4H380.4z"/>
				<path id="XMLID_87_" class="st8" d="M423.5,167.9c-3,0-4.4,1.7-4.4,5.6v5.3c0,4.3,2,5.7,5.2,5.7h3.4v-16.6H423.5z M409.5,214.3
					c0.9-2,0.9-3.9,0.9-6.6v-8.4c0-5.6,1.4-9.7,5.7-11.5c-3.8-1.8-5.6-5.4-5.6-11v-4.2c0-8.4,3.8-12.4,12.7-12.4h13v54.1h-8.6v-22
					h-3c-3.9,0-5.6,1.9-5.6,6.9v8.5c0,4.4-0.3,5.3-0.8,6.6H409.5z"/>
			</g>
			<polygon id="XMLID_84_" class="st5" points="451.1,214.3 442.5,214.3 442.5,160.2 451.1,160.2 451.1,183.4 460.9,183.4 
				460.9,160.2 469.6,160.2 469.6,214.3 460.9,214.3 460.9,191.1 451.1,191.1 			"/>
			<polygon id="XMLID_83_" class="st5" points="484.5,214.3 475.9,214.3 475.9,160.2 484.5,160.2 484.5,183.4 494.3,183.4 
				494.3,160.2 503,160.2 503,214.3 494.3,214.3 494.3,191.1 484.5,191.1 			"/>
			<g id="XMLID_77_" class="st3">
				<defs>
					<rect id="XMLID_78_" x="0" y="0" width="678" height="308"/>
				</defs>
				<clipPath id="XMLID_6_">
					<use xlink:href="#XMLID_78_"  style="overflow:visible;"/>
				</clipPath>
				<path id="XMLID_79_" class="st9" d="M539.7,160.2h8.6v54.1h-8.6V160.2z M521.9,206.5c2.7,0,4.2-1.2,4.2-5.1v-8.1
					c0-3.9-1.5-5.1-4.2-5.1h-4.1v18.3H521.9z M509.3,214.3v-54.1h8.6v20.3h4.1c8.6,0,12.8,4.7,12.8,13.4v7c0,8.7-4.2,13.4-12.8,13.4
					H509.3z"/>
			</g>
			<polygon id="XMLID_76_" class="st5" points="563.1,183 574.9,183 574.9,190.7 563.1,190.7 563.1,206.5 578,206.5 578,214.3 
				554.5,214.3 554.5,160.2 578,160.2 578,167.9 563.1,167.9 			"/>
		</g>
	</g>
</g>
</svg>
