<?xml version="1.0" encoding="utf-8"?>
<!-- Generator: Adobe Illustrator 19.2.1, SVG Export Plug-In . SVG Version: 6.00 Build 0)  -->
<svg version="1.1" id="Слой_1" xmlns="http://www.w3.org/2000/svg" xmlns:xlink="http://www.w3.org/1999/xlink" x="0px" y="0px"
	 viewBox="0 0 960 678.7" enable-background="new 0 0 960 678.7" xml:space="preserve">
<g>
	<g>
		<defs>
			<rect id="SVGID_1_" y="0" width="960" height="678.7"/>
		</defs>
		<clipPath id="SVGID_2_">
			<use xlink:href="#SVGID_1_"  overflow="visible"/>
		</clipPath>
		<g clip-path="url(#SVGID_2_)">
			<defs>
				<rect id="SVGID_3_" y="0" width="960" height="678.7"/>
			</defs>
			<clipPath id="SVGID_4_">
				<use xlink:href="#SVGID_3_"  overflow="visible"/>
			</clipPath>
			<g opacity="0.5" clip-path="url(#SVGID_4_)">
				<g>
					<defs>
						<rect id="SVGID_5_" x="505.9" y="9.3" width="464.4" height="10.3"/>
					</defs>
					<clipPath id="SVGID_6_">
						<use xlink:href="#SVGID_5_"  overflow="visible"/>
					</clipPath>
					
						<line clip-path="url(#SVGID_6_)" fill="none" stroke="#FFFFFF" stroke-width="1.1464" x1="516.2" y1="17.9" x2="960" y2="17.9"/>
				</g>
			</g>
			<g opacity="0.5" clip-path="url(#SVGID_4_)">
				<g>
					<defs>
						<rect id="SVGID_7_" x="505.9" y="27.2" width="464.4" height="10.3"/>
					</defs>
					<clipPath id="SVGID_8_">
						<use xlink:href="#SVGID_7_"  overflow="visible"/>
					</clipPath>
					
						<line clip-path="url(#SVGID_8_)" fill="none" stroke="#FFFFFF" stroke-width="1.1464" x1="516.2" y1="35.8" x2="960" y2="35.8"/>
				</g>
			</g>
			<g opacity="0.5" clip-path="url(#SVGID_4_)">
				<g>
					<defs>
						<rect id="SVGID_9_" x="505.9" y="45" width="464.4" height="10.3"/>
					</defs>
					<clipPath id="SVGID_10_">
						<use xlink:href="#SVGID_9_"  overflow="visible"/>
					</clipPath>
					
						<line clip-path="url(#SVGID_10_)" fill="none" stroke="#FFFFFF" stroke-width="1.1464" x1="516.2" y1="53.6" x2="960" y2="53.6"/>
				</g>
			</g>
			<g opacity="0.5" clip-path="url(#SVGID_4_)">
				<g>
					<defs>
						<rect id="SVGID_11_" x="505.9" y="62.9" width="464.4" height="10.3"/>
					</defs>
					<clipPath id="SVGID_12_">
						<use xlink:href="#SVGID_11_"  overflow="visible"/>
					</clipPath>
					
						<line clip-path="url(#SVGID_12_)" fill="none" stroke="#FFFFFF" stroke-width="1.1464" x1="516.2" y1="71.5" x2="960" y2="71.5"/>
				</g>
			</g>
			<g opacity="0.5" clip-path="url(#SVGID_4_)">
				<g>
					<defs>
						<rect id="SVGID_13_" x="505.9" y="80.7" width="464.4" height="10.3"/>
					</defs>
					<clipPath id="SVGID_14_">
						<use xlink:href="#SVGID_13_"  overflow="visible"/>
					</clipPath>
					
						<line clip-path="url(#SVGID_14_)" fill="none" stroke="#FFFFFF" stroke-width="1.1464" x1="516.2" y1="89.3" x2="960" y2="89.3"/>
				</g>
			</g>
			<g opacity="0.5" clip-path="url(#SVGID_4_)">
				<g>
					<defs>
						<rect id="SVGID_15_" x="505.9" y="98.6" width="464.4" height="10.3"/>
					</defs>
					<clipPath id="SVGID_16_">
						<use xlink:href="#SVGID_15_"  overflow="visible"/>
					</clipPath>
					
						<line clip-path="url(#SVGID_16_)" fill="none" stroke="#FFFFFF" stroke-width="1.1464" x1="516.2" y1="107.2" x2="960" y2="107.2"/>
				</g>
			</g>
			<g opacity="0.5" clip-path="url(#SVGID_4_)">
				<g>
					<defs>
						<rect id="SVGID_17_" x="505.9" y="116.5" width="464.4" height="10.3"/>
					</defs>
					<clipPath id="SVGID_18_">
						<use xlink:href="#SVGID_17_"  overflow="visible"/>
					</clipPath>
					
						<line clip-path="url(#SVGID_18_)" fill="none" stroke="#FFFFFF" stroke-width="1.1464" x1="516.2" y1="125.1" x2="960" y2="125.1"/>
				</g>
			</g>
			<g opacity="0.5" clip-path="url(#SVGID_4_)">
				<g>
					<defs>
						<rect id="SVGID_19_" x="505.9" y="134.3" width="464.4" height="10.3"/>
					</defs>
					<clipPath id="SVGID_20_">
						<use xlink:href="#SVGID_19_"  overflow="visible"/>
					</clipPath>
					
						<line clip-path="url(#SVGID_20_)" fill="none" stroke="#FFFFFF" stroke-width="1.1464" x1="516.2" y1="142.9" x2="960" y2="142.9"/>
				</g>
			</g>
			<g opacity="0.5" clip-path="url(#SVGID_4_)">
				<g>
					<defs>
						<rect id="SVGID_21_" x="505.9" y="152.2" width="464.4" height="10.3"/>
					</defs>
					<clipPath id="SVGID_22_">
						<use xlink:href="#SVGID_21_"  overflow="visible"/>
					</clipPath>
					
						<line clip-path="url(#SVGID_22_)" fill="none" stroke="#FFFFFF" stroke-width="1.1464" x1="516.2" y1="160.8" x2="960" y2="160.8"/>
				</g>
			</g>
			<g opacity="0.5" clip-path="url(#SVGID_4_)">
				<g>
					<defs>
						<rect id="SVGID_23_" x="505.9" y="170" width="464.4" height="10.3"/>
					</defs>
					<clipPath id="SVGID_24_">
						<use xlink:href="#SVGID_23_"  overflow="visible"/>
					</clipPath>
					
						<line clip-path="url(#SVGID_24_)" fill="none" stroke="#FFFFFF" stroke-width="1.1464" x1="516.2" y1="178.6" x2="960" y2="178.6"/>
				</g>
			</g>
			<g opacity="0.5" clip-path="url(#SVGID_4_)">
				<g>
					<defs>
						<rect id="SVGID_25_" x="505.9" y="187.9" width="464.4" height="10.3"/>
					</defs>
					<clipPath id="SVGID_26_">
						<use xlink:href="#SVGID_25_"  overflow="visible"/>
					</clipPath>
					
						<line clip-path="url(#SVGID_26_)" fill="none" stroke="#FFFFFF" stroke-width="1.1464" x1="516.2" y1="196.5" x2="960" y2="196.5"/>
				</g>
			</g>
			<g opacity="0.5" clip-path="url(#SVGID_4_)">
				<g>
					<defs>
						<rect id="SVGID_27_" x="505.9" y="205.8" width="464.4" height="10.3"/>
					</defs>
					<clipPath id="SVGID_28_">
						<use xlink:href="#SVGID_27_"  overflow="visible"/>
					</clipPath>
					
						<line clip-path="url(#SVGID_28_)" fill="none" stroke="#FFFFFF" stroke-width="1.1464" x1="516.2" y1="214.4" x2="960" y2="214.4"/>
				</g>
			</g>
			<g opacity="0.5" clip-path="url(#SVGID_4_)">
				<g>
					<defs>
						<rect id="SVGID_29_" x="505.9" y="223.6" width="464.4" height="10.3"/>
					</defs>
					<clipPath id="SVGID_30_">
						<use xlink:href="#SVGID_29_"  overflow="visible"/>
					</clipPath>
					
						<line clip-path="url(#SVGID_30_)" fill="none" stroke="#FFFFFF" stroke-width="1.1464" x1="516.2" y1="232.2" x2="960" y2="232.2"/>
				</g>
			</g>
			<g opacity="0.5" clip-path="url(#SVGID_4_)">
				<g>
					<defs>
						<rect id="SVGID_31_" x="505.9" y="241.5" width="464.4" height="10.3"/>
					</defs>
					<clipPath id="SVGID_32_">
						<use xlink:href="#SVGID_31_"  overflow="visible"/>
					</clipPath>
					
						<line clip-path="url(#SVGID_32_)" fill="none" stroke="#FFFFFF" stroke-width="1.1464" x1="516.2" y1="250.1" x2="960" y2="250.1"/>
				</g>
			</g>
			<g opacity="0.5" clip-path="url(#SVGID_4_)">
				<g>
					<defs>
						<rect id="SVGID_33_" x="505.9" y="259.3" width="464.4" height="10.3"/>
					</defs>
					<clipPath id="SVGID_34_">
						<use xlink:href="#SVGID_33_"  overflow="visible"/>
					</clipPath>
					
						<line clip-path="url(#SVGID_34_)" fill="none" stroke="#FFFFFF" stroke-width="1.1464" x1="516.2" y1="267.9" x2="960" y2="267.9"/>
				</g>
			</g>
			<g opacity="0.5" clip-path="url(#SVGID_4_)">
				<g>
					<defs>
						<rect id="SVGID_35_" x="505.9" y="277.2" width="464.4" height="10.3"/>
					</defs>
					<clipPath id="SVGID_36_">
						<use xlink:href="#SVGID_35_"  overflow="visible"/>
					</clipPath>
					
						<line clip-path="url(#SVGID_36_)" fill="none" stroke="#FFFFFF" stroke-width="1.1464" x1="516.2" y1="285.8" x2="960" y2="285.8"/>
				</g>
			</g>
			<g opacity="0.5" clip-path="url(#SVGID_4_)">
				<g>
					<defs>
						<rect id="SVGID_37_" x="505.9" y="295.1" width="464.4" height="10.3"/>
					</defs>
					<clipPath id="SVGID_38_">
						<use xlink:href="#SVGID_37_"  overflow="visible"/>
					</clipPath>
					
						<line clip-path="url(#SVGID_38_)" fill="none" stroke="#FFFFFF" stroke-width="1.1464" x1="516.2" y1="303.7" x2="960" y2="303.7"/>
				</g>
			</g>
			<g opacity="0.5" clip-path="url(#SVGID_4_)">
				<g>
					<defs>
						<rect id="SVGID_39_" x="505.9" y="312.9" width="464.4" height="10.3"/>
					</defs>
					<clipPath id="SVGID_40_">
						<use xlink:href="#SVGID_39_"  overflow="visible"/>
					</clipPath>
					
						<line clip-path="url(#SVGID_40_)" fill="none" stroke="#FFFFFF" stroke-width="1.1464" x1="516.2" y1="321.5" x2="960" y2="321.5"/>
				</g>
			</g>
			<g opacity="0.5" clip-path="url(#SVGID_4_)">
				<g>
					<defs>
						<rect id="SVGID_41_" x="505.9" y="330.8" width="464.4" height="10.3"/>
					</defs>
					<clipPath id="SVGID_42_">
						<use xlink:href="#SVGID_41_"  overflow="visible"/>
					</clipPath>
					
						<line clip-path="url(#SVGID_42_)" fill="none" stroke="#FFFFFF" stroke-width="1.1464" x1="516.2" y1="339.4" x2="960" y2="339.4"/>
				</g>
			</g>
			<g opacity="0.5" clip-path="url(#SVGID_4_)">
				<g>
					<defs>
						<rect id="SVGID_43_" x="505.9" y="348.6" width="464.4" height="10.3"/>
					</defs>
					<clipPath id="SVGID_44_">
						<use xlink:href="#SVGID_43_"  overflow="visible"/>
					</clipPath>
					
						<line clip-path="url(#SVGID_44_)" fill="none" stroke="#FFFFFF" stroke-width="1.1464" x1="516.2" y1="357.2" x2="960" y2="357.2"/>
				</g>
			</g>
			<g opacity="0.5" clip-path="url(#SVGID_4_)">
				<g>
					<defs>
						<rect id="SVGID_45_" x="505.9" y="366.5" width="464.4" height="10.3"/>
					</defs>
					<clipPath id="SVGID_46_">
						<use xlink:href="#SVGID_45_"  overflow="visible"/>
					</clipPath>
					
						<line clip-path="url(#SVGID_46_)" fill="none" stroke="#FFFFFF" stroke-width="1.1464" x1="516.2" y1="375.1" x2="960" y2="375.1"/>
				</g>
			</g>
			<g opacity="0.5" clip-path="url(#SVGID_4_)">
				<g>
					<defs>
						<rect id="SVGID_47_" x="505.9" y="384.4" width="464.4" height="10.3"/>
					</defs>
					<clipPath id="SVGID_48_">
						<use xlink:href="#SVGID_47_"  overflow="visible"/>
					</clipPath>
					
						<line clip-path="url(#SVGID_48_)" fill="none" stroke="#FFFFFF" stroke-width="1.1464" x1="516.2" y1="393" x2="960" y2="393"/>
				</g>
			</g>
			<g opacity="0.5" clip-path="url(#SVGID_4_)">
				<g>
					<defs>
						<rect id="SVGID_49_" x="505.9" y="402.2" width="464.4" height="10.3"/>
					</defs>
					<clipPath id="SVGID_50_">
						<use xlink:href="#SVGID_49_"  overflow="visible"/>
					</clipPath>
					
						<line clip-path="url(#SVGID_50_)" fill="none" stroke="#FFFFFF" stroke-width="1.1464" x1="516.2" y1="410.8" x2="960" y2="410.8"/>
				</g>
			</g>
			<g opacity="0.5" clip-path="url(#SVGID_4_)">
				<g>
					<defs>
						<rect id="SVGID_51_" x="505.9" y="420.1" width="464.4" height="10.3"/>
					</defs>
					<clipPath id="SVGID_52_">
						<use xlink:href="#SVGID_51_"  overflow="visible"/>
					</clipPath>
					
						<line clip-path="url(#SVGID_52_)" fill="none" stroke="#FFFFFF" stroke-width="1.1464" x1="516.2" y1="428.7" x2="960" y2="428.7"/>
				</g>
			</g>
			<g opacity="0.5" clip-path="url(#SVGID_4_)">
				<g>
					<defs>
						<rect id="SVGID_53_" x="505.9" y="437.9" width="464.4" height="10.3"/>
					</defs>
					<clipPath id="SVGID_54_">
						<use xlink:href="#SVGID_53_"  overflow="visible"/>
					</clipPath>
					
						<line clip-path="url(#SVGID_54_)" fill="none" stroke="#FFFFFF" stroke-width="1.1464" x1="516.2" y1="446.5" x2="960" y2="446.5"/>
				</g>
			</g>
			<g opacity="0.5" clip-path="url(#SVGID_4_)">
				<g>
					<defs>
						<rect id="SVGID_55_" x="505.9" y="455.8" width="464.4" height="10.3"/>
					</defs>
					<clipPath id="SVGID_56_">
						<use xlink:href="#SVGID_55_"  overflow="visible"/>
					</clipPath>
					
						<line clip-path="url(#SVGID_56_)" fill="none" stroke="#FFFFFF" stroke-width="1.1464" x1="516.2" y1="464.4" x2="960" y2="464.4"/>
				</g>
			</g>
			<g opacity="0.5" clip-path="url(#SVGID_4_)">
				<g>
					<defs>
						<rect id="SVGID_57_" x="505.9" y="473.7" width="464.4" height="10.3"/>
					</defs>
					<clipPath id="SVGID_58_">
						<use xlink:href="#SVGID_57_"  overflow="visible"/>
					</clipPath>
					
						<line clip-path="url(#SVGID_58_)" fill="none" stroke="#FFFFFF" stroke-width="1.1464" x1="516.2" y1="482.3" x2="960" y2="482.3"/>
				</g>
			</g>
			<g opacity="0.5" clip-path="url(#SVGID_4_)">
				<g>
					<defs>
						<rect id="SVGID_59_" x="505.9" y="491.5" width="464.4" height="10.3"/>
					</defs>
					<clipPath id="SVGID_60_">
						<use xlink:href="#SVGID_59_"  overflow="visible"/>
					</clipPath>
					
						<line clip-path="url(#SVGID_60_)" fill="none" stroke="#FFFFFF" stroke-width="1.1464" x1="516.2" y1="500.1" x2="960" y2="500.1"/>
				</g>
			</g>
			<g opacity="0.5" clip-path="url(#SVGID_4_)">
				<g>
					<defs>
						<rect id="SVGID_61_" x="505.9" y="509.4" width="464.4" height="10.3"/>
					</defs>
					<clipPath id="SVGID_62_">
						<use xlink:href="#SVGID_61_"  overflow="visible"/>
					</clipPath>
					
						<line clip-path="url(#SVGID_62_)" fill="none" stroke="#FFFFFF" stroke-width="1.1464" x1="516.2" y1="518" x2="960" y2="518"/>
				</g>
			</g>
			<g opacity="0.5" clip-path="url(#SVGID_4_)">
				<g>
					<defs>
						<rect id="SVGID_63_" x="505.9" y="527.2" width="464.4" height="10.3"/>
					</defs>
					<clipPath id="SVGID_64_">
						<use xlink:href="#SVGID_63_"  overflow="visible"/>
					</clipPath>
					
						<line clip-path="url(#SVGID_64_)" fill="none" stroke="#FFFFFF" stroke-width="1.1464" x1="516.2" y1="535.8" x2="960" y2="535.8"/>
				</g>
			</g>
			<g opacity="0.5" clip-path="url(#SVGID_4_)">
				<g>
					<defs>
						<rect id="SVGID_65_" x="505.9" y="545.1" width="464.4" height="10.3"/>
					</defs>
					<clipPath id="SVGID_66_">
						<use xlink:href="#SVGID_65_"  overflow="visible"/>
					</clipPath>
					
						<line clip-path="url(#SVGID_66_)" fill="none" stroke="#FFFFFF" stroke-width="1.1464" x1="516.2" y1="553.7" x2="960" y2="553.7"/>
				</g>
			</g>
			<g opacity="0.5" clip-path="url(#SVGID_4_)">
				<g>
					<defs>
						<rect id="SVGID_67_" x="505.9" y="563" width="464.4" height="10.3"/>
					</defs>
					<clipPath id="SVGID_68_">
						<use xlink:href="#SVGID_67_"  overflow="visible"/>
					</clipPath>
					
						<line clip-path="url(#SVGID_68_)" fill="none" stroke="#FFFFFF" stroke-width="1.1464" x1="516.2" y1="571.6" x2="960" y2="571.6"/>
				</g>
			</g>
			<g opacity="0.5" clip-path="url(#SVGID_4_)">
				<g>
					<defs>
						<rect id="SVGID_69_" x="505.9" y="580.8" width="464.4" height="10.3"/>
					</defs>
					<clipPath id="SVGID_70_">
						<use xlink:href="#SVGID_69_"  overflow="visible"/>
					</clipPath>
					
						<line clip-path="url(#SVGID_70_)" fill="none" stroke="#FFFFFF" stroke-width="1.1464" x1="516.2" y1="589.4" x2="960" y2="589.4"/>
				</g>
			</g>
			<g opacity="0.5" clip-path="url(#SVGID_4_)">
				<g>
					<defs>
						<rect id="SVGID_71_" x="505.9" y="598.7" width="464.4" height="10.3"/>
					</defs>
					<clipPath id="SVGID_72_">
						<use xlink:href="#SVGID_71_"  overflow="visible"/>
					</clipPath>
					
						<line clip-path="url(#SVGID_72_)" fill="none" stroke="#FFFFFF" stroke-width="1.1464" x1="516.2" y1="607.3" x2="960" y2="607.3"/>
				</g>
			</g>
			<g opacity="0.5" clip-path="url(#SVGID_4_)">
				<g>
					<defs>
						<rect id="SVGID_73_" x="505.9" y="616.5" width="464.4" height="10.3"/>
					</defs>
					<clipPath id="SVGID_74_">
						<use xlink:href="#SVGID_73_"  overflow="visible"/>
					</clipPath>
					
						<line clip-path="url(#SVGID_74_)" fill="none" stroke="#FFFFFF" stroke-width="1.1464" x1="516.2" y1="625.1" x2="960" y2="625.1"/>
				</g>
			</g>
			<g opacity="0.5" clip-path="url(#SVGID_4_)">
				<g>
					<defs>
						<rect id="SVGID_75_" x="505.9" y="634.4" width="464.4" height="10.3"/>
					</defs>
					<clipPath id="SVGID_76_">
						<use xlink:href="#SVGID_75_"  overflow="visible"/>
					</clipPath>
					
						<line clip-path="url(#SVGID_76_)" fill="none" stroke="#FFFFFF" stroke-width="1.1464" x1="516.2" y1="643" x2="960" y2="643"/>
				</g>
			</g>
			<g opacity="0.5" clip-path="url(#SVGID_4_)">
				<g>
					<defs>
						<rect id="SVGID_77_" x="505.9" y="652.3" width="464.4" height="10.3"/>
					</defs>
					<clipPath id="SVGID_78_">
						<use xlink:href="#SVGID_77_"  overflow="visible"/>
					</clipPath>
					
						<line clip-path="url(#SVGID_78_)" fill="none" stroke="#FFFFFF" stroke-width="1.1464" x1="516.2" y1="660.9" x2="960" y2="660.9"/>
				</g>
			</g>
			
				<rect x="517.4" y="1.2" clip-path="url(#SVGID_4_)" fill="none" stroke="#D8A64A" stroke-width="2.2928" width="67.8" height="676.4"/>
			<g opacity="0.5" clip-path="url(#SVGID_4_)">
				<g>
					<defs>
						<rect id="SVGID_79_" x="517.1" y="-8" width="21.8" height="687.9"/>
					</defs>
					<clipPath id="SVGID_80_">
						<use xlink:href="#SVGID_79_"  overflow="visible"/>
					</clipPath>
					<line clip-path="url(#SVGID_80_)" fill="none" stroke="#FFFFFF" stroke-width="1.1464" x1="528" y1="0" x2="528" y2="678.7"/>
				</g>
			</g>
			<g opacity="0.5" clip-path="url(#SVGID_4_)">
				<g>
					<defs>
						<rect id="SVGID_81_" x="528.7" y="-8" width="21.8" height="687.9"/>
					</defs>
					<clipPath id="SVGID_82_">
						<use xlink:href="#SVGID_81_"  overflow="visible"/>
					</clipPath>
					
						<line clip-path="url(#SVGID_82_)" fill="none" stroke="#FFFFFF" stroke-width="1.1464" x1="539.6" y1="0" x2="539.6" y2="678.7"/>
				</g>
			</g>
			<g opacity="0.5" clip-path="url(#SVGID_4_)">
				<g>
					<defs>
						<rect id="SVGID_83_" x="540.4" y="-8" width="21.8" height="687.9"/>
					</defs>
					<clipPath id="SVGID_84_">
						<use xlink:href="#SVGID_83_"  overflow="visible"/>
					</clipPath>
					
						<line clip-path="url(#SVGID_84_)" fill="none" stroke="#FFFFFF" stroke-width="1.1464" x1="551.3" y1="0" x2="551.3" y2="678.7"/>
				</g>
			</g>
			<g opacity="0.5" clip-path="url(#SVGID_4_)">
				<g>
					<defs>
						<rect id="SVGID_85_" x="552.1" y="-8" width="21.8" height="687.9"/>
					</defs>
					<clipPath id="SVGID_86_">
						<use xlink:href="#SVGID_85_"  overflow="visible"/>
					</clipPath>
					<line clip-path="url(#SVGID_86_)" fill="none" stroke="#FFFFFF" stroke-width="1.1464" x1="563" y1="0" x2="563" y2="678.7"/>
				</g>
			</g>
			<g opacity="0.5" clip-path="url(#SVGID_4_)">
				<g>
					<defs>
						<rect id="SVGID_87_" x="563.8" y="-8" width="21.8" height="687.9"/>
					</defs>
					<clipPath id="SVGID_88_">
						<use xlink:href="#SVGID_87_"  overflow="visible"/>
					</clipPath>
					
						<line clip-path="url(#SVGID_88_)" fill="none" stroke="#FFFFFF" stroke-width="1.1464" x1="574.7" y1="0" x2="574.7" y2="678.7"/>
				</g>
			</g>
			<g opacity="0.5" clip-path="url(#SVGID_4_)">
				<g>
					<defs>
						<rect id="SVGID_89_" x="575.4" y="-8" width="21.8" height="687.9"/>
					</defs>
					<clipPath id="SVGID_90_">
						<use xlink:href="#SVGID_89_"  overflow="visible"/>
					</clipPath>
					
						<line clip-path="url(#SVGID_90_)" fill="none" stroke="#FFFFFF" stroke-width="1.1464" x1="586.3" y1="0" x2="586.3" y2="678.7"/>
				</g>
			</g>
			<g opacity="0.5" clip-path="url(#SVGID_4_)">
				<g>
					<defs>
						<rect id="SVGID_91_" x="587.1" y="-8" width="21.8" height="687.9"/>
					</defs>
					<clipPath id="SVGID_92_">
						<use xlink:href="#SVGID_91_"  overflow="visible"/>
					</clipPath>
					<line clip-path="url(#SVGID_92_)" fill="none" stroke="#FFFFFF" stroke-width="1.1464" x1="598" y1="0" x2="598" y2="678.7"/>
				</g>
			</g>
			<g opacity="0.5" clip-path="url(#SVGID_4_)">
				<g>
					<defs>
						<rect id="SVGID_93_" x="598.8" y="-8" width="21.8" height="687.9"/>
					</defs>
					<clipPath id="SVGID_94_">
						<use xlink:href="#SVGID_93_"  overflow="visible"/>
					</clipPath>
					
						<line clip-path="url(#SVGID_94_)" fill="none" stroke="#FFFFFF" stroke-width="1.1464" x1="609.7" y1="0" x2="609.7" y2="678.7"/>
				</g>
			</g>
			<g opacity="0.5" clip-path="url(#SVGID_4_)">
				<g>
					<defs>
						<rect id="SVGID_95_" x="610.5" y="-8" width="21.8" height="687.9"/>
					</defs>
					<clipPath id="SVGID_96_">
						<use xlink:href="#SVGID_95_"  overflow="visible"/>
					</clipPath>
					
						<line clip-path="url(#SVGID_96_)" fill="none" stroke="#FFFFFF" stroke-width="1.1464" x1="621.4" y1="0" x2="621.4" y2="678.7"/>
				</g>
			</g>
			<g opacity="0.5" clip-path="url(#SVGID_4_)">
				<g>
					<defs>
						<rect id="SVGID_97_" x="622.1" y="-8" width="21.8" height="687.9"/>
					</defs>
					<clipPath id="SVGID_98_">
						<use xlink:href="#SVGID_97_"  overflow="visible"/>
					</clipPath>
					<line clip-path="url(#SVGID_98_)" fill="none" stroke="#FFFFFF" stroke-width="1.1464" x1="633" y1="0" x2="633" y2="678.7"/>
				</g>
			</g>
			<g opacity="0.5" clip-path="url(#SVGID_4_)">
				<g>
					<defs>
						<rect id="SVGID_99_" x="633.8" y="-8" width="21.8" height="687.9"/>
					</defs>
					<clipPath id="SVGID_100_">
						<use xlink:href="#SVGID_99_"  overflow="visible"/>
					</clipPath>
					
						<line clip-path="url(#SVGID_100_)" fill="none" stroke="#FFFFFF" stroke-width="1.1464" x1="644.7" y1="0" x2="644.7" y2="678.7"/>
				</g>
			</g>
			<g opacity="0.5" clip-path="url(#SVGID_4_)">
				<g>
					<defs>
						<rect id="SVGID_101_" x="645.5" y="-8" width="21.8" height="687.9"/>
					</defs>
					<clipPath id="SVGID_102_">
						<use xlink:href="#SVGID_101_"  overflow="visible"/>
					</clipPath>
					
						<line clip-path="url(#SVGID_102_)" fill="none" stroke="#FFFFFF" stroke-width="1.1464" x1="656.4" y1="0" x2="656.4" y2="678.7"/>
				</g>
			</g>
			<g opacity="0.5" clip-path="url(#SVGID_4_)">
				<g>
					<defs>
						<rect id="SVGID_103_" x="657.2" y="-8" width="21.8" height="687.9"/>
					</defs>
					<clipPath id="SVGID_104_">
						<use xlink:href="#SVGID_103_"  overflow="visible"/>
					</clipPath>
					
						<line clip-path="url(#SVGID_104_)" fill="none" stroke="#FFFFFF" stroke-width="1.1464" x1="668.1" y1="0" x2="668.1" y2="678.7"/>
				</g>
			</g>
			<g opacity="0.5" clip-path="url(#SVGID_4_)">
				<g>
					<defs>
						<rect id="SVGID_105_" x="668.8" y="-8" width="21.8" height="687.9"/>
					</defs>
					<clipPath id="SVGID_106_">
						<use xlink:href="#SVGID_105_"  overflow="visible"/>
					</clipPath>
					
						<line clip-path="url(#SVGID_106_)" fill="none" stroke="#FFFFFF" stroke-width="1.1464" x1="679.7" y1="0" x2="679.7" y2="678.7"/>
				</g>
			</g>
			<g opacity="0.5" clip-path="url(#SVGID_4_)">
				<g>
					<defs>
						<rect id="SVGID_107_" x="680.5" y="-8" width="21.8" height="687.9"/>
					</defs>
					<clipPath id="SVGID_108_">
						<use xlink:href="#SVGID_107_"  overflow="visible"/>
					</clipPath>
					
						<line clip-path="url(#SVGID_108_)" fill="none" stroke="#FFFFFF" stroke-width="1.1464" x1="691.4" y1="0" x2="691.4" y2="678.7"/>
				</g>
			</g>
			<g opacity="0.5" clip-path="url(#SVGID_4_)">
				<g>
					<defs>
						<rect id="SVGID_109_" x="692.2" y="-8" width="21.8" height="687.9"/>
					</defs>
					<clipPath id="SVGID_110_">
						<use xlink:href="#SVGID_109_"  overflow="visible"/>
					</clipPath>
					
						<line clip-path="url(#SVGID_110_)" fill="none" stroke="#FFFFFF" stroke-width="1.1464" x1="703.1" y1="0" x2="703.1" y2="678.7"/>
				</g>
			</g>
			<g opacity="0.5" clip-path="url(#SVGID_4_)">
				<g>
					<defs>
						<rect id="SVGID_111_" x="703.9" y="-8" width="21.8" height="687.9"/>
					</defs>
					<clipPath id="SVGID_112_">
						<use xlink:href="#SVGID_111_"  overflow="visible"/>
					</clipPath>
					
						<line clip-path="url(#SVGID_112_)" fill="none" stroke="#FFFFFF" stroke-width="1.1464" x1="714.8" y1="0" x2="714.8" y2="678.7"/>
				</g>
			</g>
			<g opacity="0.5" clip-path="url(#SVGID_4_)">
				<g>
					<defs>
						<rect id="SVGID_113_" x="715.5" y="-8" width="21.8" height="687.9"/>
					</defs>
					<clipPath id="SVGID_114_">
						<use xlink:href="#SVGID_113_"  overflow="visible"/>
					</clipPath>
					
						<line clip-path="url(#SVGID_114_)" fill="none" stroke="#FFFFFF" stroke-width="1.1464" x1="726.4" y1="0" x2="726.4" y2="678.7"/>
				</g>
			</g>
			<g opacity="0.5" clip-path="url(#SVGID_4_)">
				<g>
					<defs>
						<rect id="SVGID_115_" x="727.2" y="-8" width="21.8" height="687.9"/>
					</defs>
					<clipPath id="SVGID_116_">
						<use xlink:href="#SVGID_115_"  overflow="visible"/>
					</clipPath>
					
						<line clip-path="url(#SVGID_116_)" fill="none" stroke="#FFFFFF" stroke-width="1.1464" x1="738.1" y1="0" x2="738.1" y2="678.7"/>
				</g>
			</g>
			<g opacity="0.5" clip-path="url(#SVGID_4_)">
				<g>
					<defs>
						<rect id="SVGID_117_" x="738.9" y="-8" width="21.8" height="687.9"/>
					</defs>
					<clipPath id="SVGID_118_">
						<use xlink:href="#SVGID_117_"  overflow="visible"/>
					</clipPath>
					
						<line clip-path="url(#SVGID_118_)" fill="none" stroke="#FFFFFF" stroke-width="1.1464" x1="749.8" y1="0" x2="749.8" y2="678.7"/>
				</g>
			</g>
			<g opacity="0.5" clip-path="url(#SVGID_4_)">
				<g>
					<defs>
						<rect id="SVGID_119_" x="750.6" y="-8" width="21.8" height="687.9"/>
					</defs>
					<clipPath id="SVGID_120_">
						<use xlink:href="#SVGID_119_"  overflow="visible"/>
					</clipPath>
					
						<line clip-path="url(#SVGID_120_)" fill="none" stroke="#FFFFFF" stroke-width="1.1464" x1="761.5" y1="0" x2="761.5" y2="678.7"/>
				</g>
			</g>
			<g opacity="0.5" clip-path="url(#SVGID_4_)">
				<g>
					<defs>
						<rect id="SVGID_121_" x="762.2" y="-8" width="21.8" height="687.9"/>
					</defs>
					<clipPath id="SVGID_122_">
						<use xlink:href="#SVGID_121_"  overflow="visible"/>
					</clipPath>
					
						<line clip-path="url(#SVGID_122_)" fill="none" stroke="#FFFFFF" stroke-width="1.1464" x1="773.1" y1="0" x2="773.1" y2="678.7"/>
				</g>
			</g>
			<g opacity="0.5" clip-path="url(#SVGID_4_)">
				<g>
					<defs>
						<rect id="SVGID_123_" x="773.9" y="-8" width="21.8" height="687.9"/>
					</defs>
					<clipPath id="SVGID_124_">
						<use xlink:href="#SVGID_123_"  overflow="visible"/>
					</clipPath>
					
						<line clip-path="url(#SVGID_124_)" fill="none" stroke="#FFFFFF" stroke-width="1.1464" x1="784.8" y1="0" x2="784.8" y2="678.7"/>
				</g>
			</g>
			<g opacity="0.5" clip-path="url(#SVGID_4_)">
				<g>
					<defs>
						<rect id="SVGID_125_" x="785.6" y="-8" width="21.8" height="687.9"/>
					</defs>
					<clipPath id="SVGID_126_">
						<use xlink:href="#SVGID_125_"  overflow="visible"/>
					</clipPath>
					
						<line clip-path="url(#SVGID_126_)" fill="none" stroke="#FFFFFF" stroke-width="1.1464" x1="796.5" y1="0" x2="796.5" y2="678.7"/>
				</g>
			</g>
			<g opacity="0.5" clip-path="url(#SVGID_4_)">
				<g>
					<defs>
						<rect id="SVGID_127_" x="797.3" y="-8" width="21.8" height="687.9"/>
					</defs>
					<clipPath id="SVGID_128_">
						<use xlink:href="#SVGID_127_"  overflow="visible"/>
					</clipPath>
					
						<line clip-path="url(#SVGID_128_)" fill="none" stroke="#FFFFFF" stroke-width="1.1464" x1="808.2" y1="0" x2="808.2" y2="678.7"/>
				</g>
			</g>
			<g opacity="0.5" clip-path="url(#SVGID_4_)">
				<g>
					<defs>
						<rect id="SVGID_129_" x="808.9" y="-8" width="21.8" height="687.9"/>
					</defs>
					<clipPath id="SVGID_130_">
						<use xlink:href="#SVGID_129_"  overflow="visible"/>
					</clipPath>
					
						<line clip-path="url(#SVGID_130_)" fill="none" stroke="#FFFFFF" stroke-width="1.1464" x1="819.8" y1="0" x2="819.8" y2="678.7"/>
				</g>
			</g>
			<g opacity="0.5" clip-path="url(#SVGID_4_)">
				<g>
					<defs>
						<rect id="SVGID_131_" x="820.6" y="-8" width="21.8" height="687.9"/>
					</defs>
					<clipPath id="SVGID_132_">
						<use xlink:href="#SVGID_131_"  overflow="visible"/>
					</clipPath>
					
						<line clip-path="url(#SVGID_132_)" fill="none" stroke="#FFFFFF" stroke-width="1.1464" x1="831.5" y1="0" x2="831.5" y2="678.7"/>
				</g>
			</g>
			<g opacity="0.5" clip-path="url(#SVGID_4_)">
				<g>
					<defs>
						<rect id="SVGID_133_" x="832.3" y="-8" width="21.8" height="687.9"/>
					</defs>
					<clipPath id="SVGID_134_">
						<use xlink:href="#SVGID_133_"  overflow="visible"/>
					</clipPath>
					
						<line clip-path="url(#SVGID_134_)" fill="none" stroke="#FFFFFF" stroke-width="1.1464" x1="843.2" y1="0" x2="843.2" y2="678.7"/>
				</g>
			</g>
			<g opacity="0.5" clip-path="url(#SVGID_4_)">
				<g>
					<defs>
						<rect id="SVGID_135_" x="844" y="-8" width="21.8" height="687.9"/>
					</defs>
					<clipPath id="SVGID_136_">
						<use xlink:href="#SVGID_135_"  overflow="visible"/>
					</clipPath>
					
						<line clip-path="url(#SVGID_136_)" fill="none" stroke="#FFFFFF" stroke-width="1.1464" x1="854.9" y1="0" x2="854.9" y2="678.7"/>
				</g>
			</g>
			<g opacity="0.5" clip-path="url(#SVGID_4_)">
				<g>
					<defs>
						<rect id="SVGID_137_" x="855.6" y="-8" width="21.8" height="687.9"/>
					</defs>
					<clipPath id="SVGID_138_">
						<use xlink:href="#SVGID_137_"  overflow="visible"/>
					</clipPath>
					
						<line clip-path="url(#SVGID_138_)" fill="none" stroke="#FFFFFF" stroke-width="1.1464" x1="866.5" y1="0" x2="866.5" y2="678.7"/>
				</g>
			</g>
			<g opacity="0.5" clip-path="url(#SVGID_4_)">
				<g>
					<defs>
						<rect id="SVGID_139_" x="867.3" y="-8" width="21.8" height="687.9"/>
					</defs>
					<clipPath id="SVGID_140_">
						<use xlink:href="#SVGID_139_"  overflow="visible"/>
					</clipPath>
					
						<line clip-path="url(#SVGID_140_)" fill="none" stroke="#FFFFFF" stroke-width="1.1464" x1="878.2" y1="0" x2="878.2" y2="678.7"/>
				</g>
			</g>
			<g opacity="0.5" clip-path="url(#SVGID_4_)">
				<g>
					<defs>
						<rect id="SVGID_141_" x="879" y="-8" width="21.8" height="687.9"/>
					</defs>
					<clipPath id="SVGID_142_">
						<use xlink:href="#SVGID_141_"  overflow="visible"/>
					</clipPath>
					
						<line clip-path="url(#SVGID_142_)" fill="none" stroke="#FFFFFF" stroke-width="1.1464" x1="889.9" y1="0" x2="889.9" y2="678.7"/>
				</g>
			</g>
			<g opacity="0.5" clip-path="url(#SVGID_4_)">
				<g>
					<defs>
						<rect id="SVGID_143_" x="890.7" y="-8" width="21.8" height="687.9"/>
					</defs>
					<clipPath id="SVGID_144_">
						<use xlink:href="#SVGID_143_"  overflow="visible"/>
					</clipPath>
					
						<line clip-path="url(#SVGID_144_)" fill="none" stroke="#FFFFFF" stroke-width="1.1464" x1="901.5" y1="0" x2="901.5" y2="678.7"/>
				</g>
			</g>
			<g opacity="0.5" clip-path="url(#SVGID_4_)">
				<g>
					<defs>
						<rect id="SVGID_145_" x="902.3" y="-8" width="21.8" height="687.9"/>
					</defs>
					<clipPath id="SVGID_146_">
						<use xlink:href="#SVGID_145_"  overflow="visible"/>
					</clipPath>
					
						<line clip-path="url(#SVGID_146_)" fill="none" stroke="#FFFFFF" stroke-width="1.1464" x1="913.2" y1="0" x2="913.2" y2="678.7"/>
				</g>
			</g>
			<g opacity="0.5" clip-path="url(#SVGID_4_)">
				<g>
					<defs>
						<rect id="SVGID_147_" x="914" y="-8" width="21.8" height="687.9"/>
					</defs>
					<clipPath id="SVGID_148_">
						<use xlink:href="#SVGID_147_"  overflow="visible"/>
					</clipPath>
					
						<line clip-path="url(#SVGID_148_)" fill="none" stroke="#FFFFFF" stroke-width="1.1464" x1="924.9" y1="0" x2="924.9" y2="678.7"/>
				</g>
			</g>
			<g opacity="0.5" clip-path="url(#SVGID_4_)">
				<g>
					<defs>
						<rect id="SVGID_149_" x="925.7" y="-8" width="21.8" height="687.9"/>
					</defs>
					<clipPath id="SVGID_150_">
						<use xlink:href="#SVGID_149_"  overflow="visible"/>
					</clipPath>
					
						<line clip-path="url(#SVGID_150_)" fill="none" stroke="#FFFFFF" stroke-width="1.1464" x1="936.6" y1="0" x2="936.6" y2="678.7"/>
				</g>
			</g>
			<g opacity="0.5" clip-path="url(#SVGID_4_)">
				<g>
					<defs>
						<rect id="SVGID_151_" x="937.4" y="-8" width="21.8" height="687.9"/>
					</defs>
					<clipPath id="SVGID_152_">
						<use xlink:href="#SVGID_151_"  overflow="visible"/>
					</clipPath>
					
						<line clip-path="url(#SVGID_152_)" fill="none" stroke="#FFFFFF" stroke-width="1.1464" x1="948.2" y1="0" x2="948.2" y2="678.7"/>
				</g>
			</g>
			
				<rect x="610.8" y="1.2" clip-path="url(#SVGID_4_)" fill="none" stroke="#D8A64A" stroke-width="2.2928" width="67.8" height="676.4"/>
			
				<rect x="704.2" y="1.2" clip-path="url(#SVGID_4_)" fill="none" stroke="#D8A64A" stroke-width="2.2928" width="67.8" height="676.4"/>
			
				<rect x="797.6" y="1.2" clip-path="url(#SVGID_4_)" fill="none" stroke="#D8A64A" stroke-width="2.2928" width="67.8" height="676.4"/>
			
				<rect x="891.1" y="1.2" clip-path="url(#SVGID_4_)" fill="none" stroke="#D8A64A" stroke-width="2.2928" width="67.8" height="676.4"/>
			
				<rect x="891.1" y="1.2" clip-path="url(#SVGID_4_)" fill="none" stroke="#D8A64A" stroke-width="2.2928" width="67.8" height="676.4"/>
			
				<rect x="517.4" y="1.2" clip-path="url(#SVGID_4_)" fill="none" stroke="#D8A64A" stroke-width="2.2928" width="441.5" height="676.4"/>
			
				<rect x="517.4" y="1.2" clip-path="url(#SVGID_4_)" fill="none" stroke="#D8A64A" stroke-width="2.2928" width="441.5" height="676.4"/>
			<g opacity="0.5" clip-path="url(#SVGID_4_)">
				<g>
					<defs>
						<rect id="SVGID_153_" x="-10.3" y="9.3" width="464.4" height="10.3"/>
					</defs>
					<clipPath id="SVGID_154_">
						<use xlink:href="#SVGID_153_"  overflow="visible"/>
					</clipPath>
					
						<line clip-path="url(#SVGID_154_)" fill="none" stroke="#FFFFFF" stroke-width="1.1464" x1="0" y1="17.9" x2="443.8" y2="17.9"/>
				</g>
			</g>
			<g opacity="0.5" clip-path="url(#SVGID_4_)">
				<g>
					<defs>
						<rect id="SVGID_155_" x="-10.3" y="27.2" width="464.4" height="10.3"/>
					</defs>
					<clipPath id="SVGID_156_">
						<use xlink:href="#SVGID_155_"  overflow="visible"/>
					</clipPath>
					
						<line clip-path="url(#SVGID_156_)" fill="none" stroke="#FFFFFF" stroke-width="1.1464" x1="0" y1="35.8" x2="443.8" y2="35.8"/>
				</g>
			</g>
			<g opacity="0.5" clip-path="url(#SVGID_4_)">
				<g>
					<defs>
						<rect id="SVGID_157_" x="-10.3" y="45" width="464.4" height="10.3"/>
					</defs>
					<clipPath id="SVGID_158_">
						<use xlink:href="#SVGID_157_"  overflow="visible"/>
					</clipPath>
					
						<line clip-path="url(#SVGID_158_)" fill="none" stroke="#FFFFFF" stroke-width="1.1464" x1="0" y1="53.6" x2="443.8" y2="53.6"/>
				</g>
			</g>
			<g opacity="0.5" clip-path="url(#SVGID_4_)">
				<g>
					<defs>
						<rect id="SVGID_159_" x="-10.3" y="62.9" width="464.4" height="10.3"/>
					</defs>
					<clipPath id="SVGID_160_">
						<use xlink:href="#SVGID_159_"  overflow="visible"/>
					</clipPath>
					
						<line clip-path="url(#SVGID_160_)" fill="none" stroke="#FFFFFF" stroke-width="1.1464" x1="0" y1="71.5" x2="443.8" y2="71.5"/>
				</g>
			</g>
			<g opacity="0.5" clip-path="url(#SVGID_4_)">
				<g>
					<defs>
						<rect id="SVGID_161_" x="-10.3" y="80.7" width="464.4" height="10.3"/>
					</defs>
					<clipPath id="SVGID_162_">
						<use xlink:href="#SVGID_161_"  overflow="visible"/>
					</clipPath>
					
						<line clip-path="url(#SVGID_162_)" fill="none" stroke="#FFFFFF" stroke-width="1.1464" x1="0" y1="89.3" x2="443.8" y2="89.3"/>
				</g>
			</g>
			<g opacity="0.5" clip-path="url(#SVGID_4_)">
				<g>
					<defs>
						<rect id="SVGID_163_" x="-10.3" y="98.6" width="464.4" height="10.3"/>
					</defs>
					<clipPath id="SVGID_164_">
						<use xlink:href="#SVGID_163_"  overflow="visible"/>
					</clipPath>
					
						<line clip-path="url(#SVGID_164_)" fill="none" stroke="#FFFFFF" stroke-width="1.1464" x1="0" y1="107.2" x2="443.8" y2="107.2"/>
				</g>
			</g>
			<g opacity="0.5" clip-path="url(#SVGID_4_)">
				<g>
					<defs>
						<rect id="SVGID_165_" x="-10.3" y="116.5" width="464.4" height="10.3"/>
					</defs>
					<clipPath id="SVGID_166_">
						<use xlink:href="#SVGID_165_"  overflow="visible"/>
					</clipPath>
					
						<line clip-path="url(#SVGID_166_)" fill="none" stroke="#FFFFFF" stroke-width="1.1464" x1="0" y1="125.1" x2="443.8" y2="125.1"/>
				</g>
			</g>
			<g opacity="0.5" clip-path="url(#SVGID_4_)">
				<g>
					<defs>
						<rect id="SVGID_167_" x="-10.3" y="134.3" width="464.4" height="10.3"/>
					</defs>
					<clipPath id="SVGID_168_">
						<use xlink:href="#SVGID_167_"  overflow="visible"/>
					</clipPath>
					
						<line clip-path="url(#SVGID_168_)" fill="none" stroke="#FFFFFF" stroke-width="1.1464" x1="0" y1="142.9" x2="443.8" y2="142.9"/>
				</g>
			</g>
			<g opacity="0.5" clip-path="url(#SVGID_4_)">
				<g>
					<defs>
						<rect id="SVGID_169_" x="-10.3" y="152.2" width="464.4" height="10.3"/>
					</defs>
					<clipPath id="SVGID_170_">
						<use xlink:href="#SVGID_169_"  overflow="visible"/>
					</clipPath>
					
						<line clip-path="url(#SVGID_170_)" fill="none" stroke="#FFFFFF" stroke-width="1.1464" x1="0" y1="160.8" x2="443.8" y2="160.8"/>
				</g>
			</g>
			<g opacity="0.5" clip-path="url(#SVGID_4_)">
				<g>
					<defs>
						<rect id="SVGID_171_" x="-10.3" y="170" width="464.4" height="10.3"/>
					</defs>
					<clipPath id="SVGID_172_">
						<use xlink:href="#SVGID_171_"  overflow="visible"/>
					</clipPath>
					
						<line clip-path="url(#SVGID_172_)" fill="none" stroke="#FFFFFF" stroke-width="1.1464" x1="0" y1="178.6" x2="443.8" y2="178.6"/>
				</g>
			</g>
			<g opacity="0.5" clip-path="url(#SVGID_4_)">
				<g>
					<defs>
						<rect id="SVGID_173_" x="-10.3" y="187.9" width="464.4" height="10.3"/>
					</defs>
					<clipPath id="SVGID_174_">
						<use xlink:href="#SVGID_173_"  overflow="visible"/>
					</clipPath>
					
						<line clip-path="url(#SVGID_174_)" fill="none" stroke="#FFFFFF" stroke-width="1.1464" x1="0" y1="196.5" x2="443.8" y2="196.5"/>
				</g>
			</g>
			<g opacity="0.5" clip-path="url(#SVGID_4_)">
				<g>
					<defs>
						<rect id="SVGID_175_" x="-10.3" y="205.8" width="464.4" height="10.3"/>
					</defs>
					<clipPath id="SVGID_176_">
						<use xlink:href="#SVGID_175_"  overflow="visible"/>
					</clipPath>
					
						<line clip-path="url(#SVGID_176_)" fill="none" stroke="#FFFFFF" stroke-width="1.1464" x1="0" y1="214.4" x2="443.8" y2="214.4"/>
				</g>
			</g>
			<g opacity="0.5" clip-path="url(#SVGID_4_)">
				<g>
					<defs>
						<rect id="SVGID_177_" x="-10.3" y="223.6" width="464.4" height="10.3"/>
					</defs>
					<clipPath id="SVGID_178_">
						<use xlink:href="#SVGID_177_"  overflow="visible"/>
					</clipPath>
					
						<line clip-path="url(#SVGID_178_)" fill="none" stroke="#FFFFFF" stroke-width="1.1464" x1="0" y1="232.2" x2="443.8" y2="232.2"/>
				</g>
			</g>
			<g opacity="0.5" clip-path="url(#SVGID_4_)">
				<g>
					<defs>
						<rect id="SVGID_179_" x="-10.3" y="241.5" width="464.4" height="10.3"/>
					</defs>
					<clipPath id="SVGID_180_">
						<use xlink:href="#SVGID_179_"  overflow="visible"/>
					</clipPath>
					
						<line clip-path="url(#SVGID_180_)" fill="none" stroke="#FFFFFF" stroke-width="1.1464" x1="0" y1="250.1" x2="443.8" y2="250.1"/>
				</g>
			</g>
			<g opacity="0.5" clip-path="url(#SVGID_4_)">
				<g>
					<defs>
						<rect id="SVGID_181_" x="-10.3" y="259.3" width="464.4" height="10.3"/>
					</defs>
					<clipPath id="SVGID_182_">
						<use xlink:href="#SVGID_181_"  overflow="visible"/>
					</clipPath>
					
						<line clip-path="url(#SVGID_182_)" fill="none" stroke="#FFFFFF" stroke-width="1.1464" x1="0" y1="267.9" x2="443.8" y2="267.9"/>
				</g>
			</g>
			<g opacity="0.5" clip-path="url(#SVGID_4_)">
				<g>
					<defs>
						<rect id="SVGID_183_" x="-10.3" y="277.2" width="464.4" height="10.3"/>
					</defs>
					<clipPath id="SVGID_184_">
						<use xlink:href="#SVGID_183_"  overflow="visible"/>
					</clipPath>
					
						<line clip-path="url(#SVGID_184_)" fill="none" stroke="#FFFFFF" stroke-width="1.1464" x1="0" y1="285.8" x2="443.8" y2="285.8"/>
				</g>
			</g>
			<g opacity="0.5" clip-path="url(#SVGID_4_)">
				<g>
					<defs>
						<rect id="SVGID_185_" x="-10.3" y="295.1" width="464.4" height="10.3"/>
					</defs>
					<clipPath id="SVGID_186_">
						<use xlink:href="#SVGID_185_"  overflow="visible"/>
					</clipPath>
					
						<line clip-path="url(#SVGID_186_)" fill="none" stroke="#FFFFFF" stroke-width="1.1464" x1="0" y1="303.7" x2="443.8" y2="303.7"/>
				</g>
			</g>
			<g opacity="0.5" clip-path="url(#SVGID_4_)">
				<g>
					<defs>
						<rect id="SVGID_187_" x="-10.3" y="312.9" width="464.4" height="10.3"/>
					</defs>
					<clipPath id="SVGID_188_">
						<use xlink:href="#SVGID_187_"  overflow="visible"/>
					</clipPath>
					
						<line clip-path="url(#SVGID_188_)" fill="none" stroke="#FFFFFF" stroke-width="1.1464" x1="0" y1="321.5" x2="443.8" y2="321.5"/>
				</g>
			</g>
			<g opacity="0.5" clip-path="url(#SVGID_4_)">
				<g>
					<defs>
						<rect id="SVGID_189_" x="-10.3" y="330.8" width="464.4" height="10.3"/>
					</defs>
					<clipPath id="SVGID_190_">
						<use xlink:href="#SVGID_189_"  overflow="visible"/>
					</clipPath>
					
						<line clip-path="url(#SVGID_190_)" fill="none" stroke="#FFFFFF" stroke-width="1.1464" x1="0" y1="339.4" x2="443.8" y2="339.4"/>
				</g>
			</g>
			<g opacity="0.5" clip-path="url(#SVGID_4_)">
				<g>
					<defs>
						<rect id="SVGID_191_" x="-10.3" y="348.6" width="464.4" height="10.3"/>
					</defs>
					<clipPath id="SVGID_192_">
						<use xlink:href="#SVGID_191_"  overflow="visible"/>
					</clipPath>
					
						<line clip-path="url(#SVGID_192_)" fill="none" stroke="#FFFFFF" stroke-width="1.1464" x1="0" y1="357.2" x2="443.8" y2="357.2"/>
				</g>
			</g>
			<g opacity="0.5" clip-path="url(#SVGID_4_)">
				<g>
					<defs>
						<rect id="SVGID_193_" x="-10.3" y="366.5" width="464.4" height="10.3"/>
					</defs>
					<clipPath id="SVGID_194_">
						<use xlink:href="#SVGID_193_"  overflow="visible"/>
					</clipPath>
					
						<line clip-path="url(#SVGID_194_)" fill="none" stroke="#FFFFFF" stroke-width="1.1464" x1="0" y1="375.1" x2="443.8" y2="375.1"/>
				</g>
			</g>
			<g opacity="0.5" clip-path="url(#SVGID_4_)">
				<g>
					<defs>
						<rect id="SVGID_195_" x="-10.3" y="384.4" width="464.4" height="10.3"/>
					</defs>
					<clipPath id="SVGID_196_">
						<use xlink:href="#SVGID_195_"  overflow="visible"/>
					</clipPath>
					<line clip-path="url(#SVGID_196_)" fill="none" stroke="#FFFFFF" stroke-width="1.1464" x1="0" y1="393" x2="443.8" y2="393"/>
				</g>
			</g>
			<g opacity="0.5" clip-path="url(#SVGID_4_)">
				<g>
					<defs>
						<rect id="SVGID_197_" x="-10.3" y="402.2" width="464.4" height="10.3"/>
					</defs>
					<clipPath id="SVGID_198_">
						<use xlink:href="#SVGID_197_"  overflow="visible"/>
					</clipPath>
					
						<line clip-path="url(#SVGID_198_)" fill="none" stroke="#FFFFFF" stroke-width="1.1464" x1="0" y1="410.8" x2="443.8" y2="410.8"/>
				</g>
			</g>
			<g opacity="0.5" clip-path="url(#SVGID_4_)">
				<g>
					<defs>
						<rect id="SVGID_199_" x="-10.3" y="420.1" width="464.4" height="10.3"/>
					</defs>
					<clipPath id="SVGID_200_">
						<use xlink:href="#SVGID_199_"  overflow="visible"/>
					</clipPath>
					
						<line clip-path="url(#SVGID_200_)" fill="none" stroke="#FFFFFF" stroke-width="1.1464" x1="0" y1="428.7" x2="443.8" y2="428.7"/>
				</g>
			</g>
			<g opacity="0.5" clip-path="url(#SVGID_4_)">
				<g>
					<defs>
						<rect id="SVGID_201_" x="-10.3" y="437.9" width="464.4" height="10.3"/>
					</defs>
					<clipPath id="SVGID_202_">
						<use xlink:href="#SVGID_201_"  overflow="visible"/>
					</clipPath>
					
						<line clip-path="url(#SVGID_202_)" fill="none" stroke="#FFFFFF" stroke-width="1.1464" x1="0" y1="446.5" x2="443.8" y2="446.5"/>
				</g>
			</g>
			<g opacity="0.5" clip-path="url(#SVGID_4_)">
				<g>
					<defs>
						<rect id="SVGID_203_" x="-10.3" y="455.8" width="464.4" height="10.3"/>
					</defs>
					<clipPath id="SVGID_204_">
						<use xlink:href="#SVGID_203_"  overflow="visible"/>
					</clipPath>
					
						<line clip-path="url(#SVGID_204_)" fill="none" stroke="#FFFFFF" stroke-width="1.1464" x1="0" y1="464.4" x2="443.8" y2="464.4"/>
				</g>
			</g>
			<g opacity="0.5" clip-path="url(#SVGID_4_)">
				<g>
					<defs>
						<rect id="SVGID_205_" x="-10.3" y="473.7" width="464.4" height="10.3"/>
					</defs>
					<clipPath id="SVGID_206_">
						<use xlink:href="#SVGID_205_"  overflow="visible"/>
					</clipPath>
					
						<line clip-path="url(#SVGID_206_)" fill="none" stroke="#FFFFFF" stroke-width="1.1464" x1="0" y1="482.3" x2="443.8" y2="482.3"/>
				</g>
			</g>
			<g opacity="0.5" clip-path="url(#SVGID_4_)">
				<g>
					<defs>
						<rect id="SVGID_207_" x="-10.3" y="491.5" width="464.4" height="10.3"/>
					</defs>
					<clipPath id="SVGID_208_">
						<use xlink:href="#SVGID_207_"  overflow="visible"/>
					</clipPath>
					
						<line clip-path="url(#SVGID_208_)" fill="none" stroke="#FFFFFF" stroke-width="1.1464" x1="0" y1="500.1" x2="443.8" y2="500.1"/>
				</g>
			</g>
			<g opacity="0.5" clip-path="url(#SVGID_4_)">
				<g>
					<defs>
						<rect id="SVGID_209_" x="-10.3" y="509.4" width="464.4" height="10.3"/>
					</defs>
					<clipPath id="SVGID_210_">
						<use xlink:href="#SVGID_209_"  overflow="visible"/>
					</clipPath>
					<line clip-path="url(#SVGID_210_)" fill="none" stroke="#FFFFFF" stroke-width="1.1464" x1="0" y1="518" x2="443.8" y2="518"/>
				</g>
			</g>
			<g opacity="0.5" clip-path="url(#SVGID_4_)">
				<g>
					<defs>
						<rect id="SVGID_211_" x="-10.3" y="527.2" width="464.4" height="10.3"/>
					</defs>
					<clipPath id="SVGID_212_">
						<use xlink:href="#SVGID_211_"  overflow="visible"/>
					</clipPath>
					
						<line clip-path="url(#SVGID_212_)" fill="none" stroke="#FFFFFF" stroke-width="1.1464" x1="0" y1="535.8" x2="443.8" y2="535.8"/>
				</g>
			</g>
			<g opacity="0.5" clip-path="url(#SVGID_4_)">
				<g>
					<defs>
						<rect id="SVGID_213_" x="-10.3" y="545.1" width="464.4" height="10.3"/>
					</defs>
					<clipPath id="SVGID_214_">
						<use xlink:href="#SVGID_213_"  overflow="visible"/>
					</clipPath>
					
						<line clip-path="url(#SVGID_214_)" fill="none" stroke="#FFFFFF" stroke-width="1.1464" x1="0" y1="553.7" x2="443.8" y2="553.7"/>
				</g>
			</g>
			<g opacity="0.5" clip-path="url(#SVGID_4_)">
				<g>
					<defs>
						<rect id="SVGID_215_" x="-10.3" y="563" width="464.4" height="10.3"/>
					</defs>
					<clipPath id="SVGID_216_">
						<use xlink:href="#SVGID_215_"  overflow="visible"/>
					</clipPath>
					
						<line clip-path="url(#SVGID_216_)" fill="none" stroke="#FFFFFF" stroke-width="1.1464" x1="0" y1="571.6" x2="443.8" y2="571.6"/>
				</g>
			</g>
			<g opacity="0.5" clip-path="url(#SVGID_4_)">
				<g>
					<defs>
						<rect id="SVGID_217_" x="-10.3" y="580.8" width="464.4" height="10.3"/>
					</defs>
					<clipPath id="SVGID_218_">
						<use xlink:href="#SVGID_217_"  overflow="visible"/>
					</clipPath>
					
						<line clip-path="url(#SVGID_218_)" fill="none" stroke="#FFFFFF" stroke-width="1.1464" x1="0" y1="589.4" x2="443.8" y2="589.4"/>
				</g>
			</g>
			<g opacity="0.5" clip-path="url(#SVGID_4_)">
				<g>
					<defs>
						<rect id="SVGID_219_" x="-10.3" y="598.7" width="464.4" height="10.3"/>
					</defs>
					<clipPath id="SVGID_220_">
						<use xlink:href="#SVGID_219_"  overflow="visible"/>
					</clipPath>
					
						<line clip-path="url(#SVGID_220_)" fill="none" stroke="#FFFFFF" stroke-width="1.1464" x1="0" y1="607.3" x2="443.8" y2="607.3"/>
				</g>
			</g>
			<g opacity="0.5" clip-path="url(#SVGID_4_)">
				<g>
					<defs>
						<rect id="SVGID_221_" x="-10.3" y="616.5" width="464.4" height="10.3"/>
					</defs>
					<clipPath id="SVGID_222_">
						<use xlink:href="#SVGID_221_"  overflow="visible"/>
					</clipPath>
					
						<line clip-path="url(#SVGID_222_)" fill="none" stroke="#FFFFFF" stroke-width="1.1464" x1="0" y1="625.1" x2="443.8" y2="625.1"/>
				</g>
			</g>
			<g opacity="0.5" clip-path="url(#SVGID_4_)">
				<g>
					<defs>
						<rect id="SVGID_223_" x="-10.3" y="634.4" width="464.4" height="10.3"/>
					</defs>
					<clipPath id="SVGID_224_">
						<use xlink:href="#SVGID_223_"  overflow="visible"/>
					</clipPath>
					<line clip-path="url(#SVGID_224_)" fill="none" stroke="#FFFFFF" stroke-width="1.1464" x1="0" y1="643" x2="443.8" y2="643"/>
				</g>
			</g>
			<g opacity="0.5" clip-path="url(#SVGID_4_)">
				<g>
					<defs>
						<rect id="SVGID_225_" x="-10.3" y="652.3" width="464.4" height="10.3"/>
					</defs>
					<clipPath id="SVGID_226_">
						<use xlink:href="#SVGID_225_"  overflow="visible"/>
					</clipPath>
					
						<line clip-path="url(#SVGID_226_)" fill="none" stroke="#FFFFFF" stroke-width="1.1464" x1="0" y1="660.9" x2="443.8" y2="660.9"/>
				</g>
			</g>
			
				<rect x="1.1" y="1.2" clip-path="url(#SVGID_4_)" fill="none" stroke="#D8A64A" stroke-width="2.2928" width="67.8" height="676.4"/>
			<g opacity="0.5" clip-path="url(#SVGID_4_)">
				<g>
					<defs>
						<rect id="SVGID_227_" x="0.8" y="-8" width="21.8" height="687.9"/>
					</defs>
					<clipPath id="SVGID_228_">
						<use xlink:href="#SVGID_227_"  overflow="visible"/>
					</clipPath>
					
						<line clip-path="url(#SVGID_228_)" fill="none" stroke="#FFFFFF" stroke-width="1.1464" x1="11.7" y1="0" x2="11.7" y2="678.7"/>
				</g>
			</g>
			<g opacity="0.5" clip-path="url(#SVGID_4_)">
				<g>
					<defs>
						<rect id="SVGID_229_" x="12.5" y="-8" width="21.8" height="687.9"/>
					</defs>
					<clipPath id="SVGID_230_">
						<use xlink:href="#SVGID_229_"  overflow="visible"/>
					</clipPath>
					
						<line clip-path="url(#SVGID_230_)" fill="none" stroke="#FFFFFF" stroke-width="1.1464" x1="23.4" y1="0" x2="23.4" y2="678.7"/>
				</g>
			</g>
			<g opacity="0.5" clip-path="url(#SVGID_4_)">
				<g>
					<defs>
						<rect id="SVGID_231_" x="24.2" y="-8" width="21.8" height="687.9"/>
					</defs>
					<clipPath id="SVGID_232_">
						<use xlink:href="#SVGID_231_"  overflow="visible"/>
					</clipPath>
					
						<line clip-path="url(#SVGID_232_)" fill="none" stroke="#FFFFFF" stroke-width="1.1464" x1="35.1" y1="0" x2="35.1" y2="678.7"/>
				</g>
			</g>
			<g opacity="0.5" clip-path="url(#SVGID_4_)">
				<g>
					<defs>
						<rect id="SVGID_233_" x="35.9" y="-8" width="21.8" height="687.9"/>
					</defs>
					<clipPath id="SVGID_234_">
						<use xlink:href="#SVGID_233_"  overflow="visible"/>
					</clipPath>
					
						<line clip-path="url(#SVGID_234_)" fill="none" stroke="#FFFFFF" stroke-width="1.1464" x1="46.8" y1="0" x2="46.8" y2="678.7"/>
				</g>
			</g>
			<g opacity="0.5" clip-path="url(#SVGID_4_)">
				<g>
					<defs>
						<rect id="SVGID_235_" x="47.5" y="-8" width="21.8" height="687.9"/>
					</defs>
					<clipPath id="SVGID_236_">
						<use xlink:href="#SVGID_235_"  overflow="visible"/>
					</clipPath>
					
						<line clip-path="url(#SVGID_236_)" fill="none" stroke="#FFFFFF" stroke-width="1.1464" x1="58.4" y1="0" x2="58.4" y2="678.7"/>
				</g>
			</g>
			<g opacity="0.5" clip-path="url(#SVGID_4_)">
				<g>
					<defs>
						<rect id="SVGID_237_" x="59.2" y="-8" width="21.8" height="687.9"/>
					</defs>
					<clipPath id="SVGID_238_">
						<use xlink:href="#SVGID_237_"  overflow="visible"/>
					</clipPath>
					
						<line clip-path="url(#SVGID_238_)" fill="none" stroke="#FFFFFF" stroke-width="1.1464" x1="70.1" y1="0" x2="70.1" y2="678.7"/>
				</g>
			</g>
			<g opacity="0.5" clip-path="url(#SVGID_4_)">
				<g>
					<defs>
						<rect id="SVGID_239_" x="70.9" y="-8" width="21.8" height="687.9"/>
					</defs>
					<clipPath id="SVGID_240_">
						<use xlink:href="#SVGID_239_"  overflow="visible"/>
					</clipPath>
					
						<line clip-path="url(#SVGID_240_)" fill="none" stroke="#FFFFFF" stroke-width="1.1464" x1="81.8" y1="0" x2="81.8" y2="678.7"/>
				</g>
			</g>
			<g opacity="0.5" clip-path="url(#SVGID_4_)">
				<g>
					<defs>
						<rect id="SVGID_241_" x="82.6" y="-8" width="21.8" height="687.9"/>
					</defs>
					<clipPath id="SVGID_242_">
						<use xlink:href="#SVGID_241_"  overflow="visible"/>
					</clipPath>
					
						<line clip-path="url(#SVGID_242_)" fill="none" stroke="#FFFFFF" stroke-width="1.1464" x1="93.5" y1="0" x2="93.5" y2="678.7"/>
				</g>
			</g>
			<g opacity="0.5" clip-path="url(#SVGID_4_)">
				<g>
					<defs>
						<rect id="SVGID_243_" x="94.2" y="-8" width="21.8" height="687.9"/>
					</defs>
					<clipPath id="SVGID_244_">
						<use xlink:href="#SVGID_243_"  overflow="visible"/>
					</clipPath>
					
						<line clip-path="url(#SVGID_244_)" fill="none" stroke="#FFFFFF" stroke-width="1.1464" x1="105.1" y1="0" x2="105.1" y2="678.7"/>
				</g>
			</g>
			<g opacity="0.5" clip-path="url(#SVGID_4_)">
				<g>
					<defs>
						<rect id="SVGID_245_" x="105.9" y="-8" width="21.8" height="687.9"/>
					</defs>
					<clipPath id="SVGID_246_">
						<use xlink:href="#SVGID_245_"  overflow="visible"/>
					</clipPath>
					
						<line clip-path="url(#SVGID_246_)" fill="none" stroke="#FFFFFF" stroke-width="1.1464" x1="116.8" y1="0" x2="116.8" y2="678.7"/>
				</g>
			</g>
			<g opacity="0.5" clip-path="url(#SVGID_4_)">
				<g>
					<defs>
						<rect id="SVGID_247_" x="117.6" y="-8" width="21.8" height="687.9"/>
					</defs>
					<clipPath id="SVGID_248_">
						<use xlink:href="#SVGID_247_"  overflow="visible"/>
					</clipPath>
					
						<line clip-path="url(#SVGID_248_)" fill="none" stroke="#FFFFFF" stroke-width="1.1464" x1="128.5" y1="0" x2="128.5" y2="678.7"/>
				</g>
			</g>
			<g opacity="0.5" clip-path="url(#SVGID_4_)">
				<g>
					<defs>
						<rect id="SVGID_249_" x="129.3" y="-8" width="21.8" height="687.9"/>
					</defs>
					<clipPath id="SVGID_250_">
						<use xlink:href="#SVGID_249_"  overflow="visible"/>
					</clipPath>
					
						<line clip-path="url(#SVGID_250_)" fill="none" stroke="#FFFFFF" stroke-width="1.1464" x1="140.2" y1="0" x2="140.2" y2="678.7"/>
				</g>
			</g>
			<g opacity="0.5" clip-path="url(#SVGID_4_)">
				<g>
					<defs>
						<rect id="SVGID_251_" x="140.9" y="-8" width="21.8" height="687.9"/>
					</defs>
					<clipPath id="SVGID_252_">
						<use xlink:href="#SVGID_251_"  overflow="visible"/>
					</clipPath>
					
						<line clip-path="url(#SVGID_252_)" fill="none" stroke="#FFFFFF" stroke-width="1.1464" x1="151.8" y1="0" x2="151.8" y2="678.7"/>
				</g>
			</g>
			<g opacity="0.5" clip-path="url(#SVGID_4_)">
				<g>
					<defs>
						<rect id="SVGID_253_" x="152.6" y="-8" width="21.8" height="687.9"/>
					</defs>
					<clipPath id="SVGID_254_">
						<use xlink:href="#SVGID_253_"  overflow="visible"/>
					</clipPath>
					
						<line clip-path="url(#SVGID_254_)" fill="none" stroke="#FFFFFF" stroke-width="1.1464" x1="163.5" y1="0" x2="163.5" y2="678.7"/>
				</g>
			</g>
			<g opacity="0.5" clip-path="url(#SVGID_4_)">
				<g>
					<defs>
						<rect id="SVGID_255_" x="164.3" y="-8" width="21.8" height="687.9"/>
					</defs>
					<clipPath id="SVGID_256_">
						<use xlink:href="#SVGID_255_"  overflow="visible"/>
					</clipPath>
					
						<line clip-path="url(#SVGID_256_)" fill="none" stroke="#FFFFFF" stroke-width="1.1464" x1="175.2" y1="0" x2="175.2" y2="678.7"/>
				</g>
			</g>
			<g opacity="0.5" clip-path="url(#SVGID_4_)">
				<g>
					<defs>
						<rect id="SVGID_257_" x="176" y="-8" width="21.8" height="687.9"/>
					</defs>
					<clipPath id="SVGID_258_">
						<use xlink:href="#SVGID_257_"  overflow="visible"/>
					</clipPath>
					
						<line clip-path="url(#SVGID_258_)" fill="none" stroke="#FFFFFF" stroke-width="1.1464" x1="186.8" y1="0" x2="186.8" y2="678.7"/>
				</g>
			</g>
			<g opacity="0.5" clip-path="url(#SVGID_4_)">
				<g>
					<defs>
						<rect id="SVGID_259_" x="187.6" y="-8" width="21.8" height="687.9"/>
					</defs>
					<clipPath id="SVGID_260_">
						<use xlink:href="#SVGID_259_"  overflow="visible"/>
					</clipPath>
					
						<line clip-path="url(#SVGID_260_)" fill="none" stroke="#FFFFFF" stroke-width="1.1464" x1="198.5" y1="0" x2="198.5" y2="678.7"/>
				</g>
			</g>
			<g opacity="0.5" clip-path="url(#SVGID_4_)">
				<g>
					<defs>
						<rect id="SVGID_261_" x="199.3" y="-8" width="21.8" height="687.9"/>
					</defs>
					<clipPath id="SVGID_262_">
						<use xlink:href="#SVGID_261_"  overflow="visible"/>
					</clipPath>
					
						<line clip-path="url(#SVGID_262_)" fill="none" stroke="#FFFFFF" stroke-width="1.1464" x1="210.2" y1="0" x2="210.2" y2="678.7"/>
				</g>
			</g>
			<g opacity="0.5" clip-path="url(#SVGID_4_)">
				<g>
					<defs>
						<rect id="SVGID_263_" x="211" y="-8" width="21.8" height="687.9"/>
					</defs>
					<clipPath id="SVGID_264_">
						<use xlink:href="#SVGID_263_"  overflow="visible"/>
					</clipPath>
					
						<line clip-path="url(#SVGID_264_)" fill="none" stroke="#FFFFFF" stroke-width="1.1464" x1="221.9" y1="0" x2="221.9" y2="678.7"/>
				</g>
			</g>
			<g opacity="0.5" clip-path="url(#SVGID_4_)">
				<g>
					<defs>
						<rect id="SVGID_265_" x="222.7" y="-8" width="21.8" height="687.9"/>
					</defs>
					<clipPath id="SVGID_266_">
						<use xlink:href="#SVGID_265_"  overflow="visible"/>
					</clipPath>
					
						<line clip-path="url(#SVGID_266_)" fill="none" stroke="#FFFFFF" stroke-width="1.1464" x1="233.5" y1="0" x2="233.5" y2="678.7"/>
				</g>
			</g>
			<g opacity="0.5" clip-path="url(#SVGID_4_)">
				<g>
					<defs>
						<rect id="SVGID_267_" x="234.3" y="-8" width="21.8" height="687.9"/>
					</defs>
					<clipPath id="SVGID_268_">
						<use xlink:href="#SVGID_267_"  overflow="visible"/>
					</clipPath>
					
						<line clip-path="url(#SVGID_268_)" fill="none" stroke="#FFFFFF" stroke-width="1.1464" x1="245.2" y1="0" x2="245.2" y2="678.7"/>
				</g>
			</g>
			<g opacity="0.5" clip-path="url(#SVGID_4_)">
				<g>
					<defs>
						<rect id="SVGID_269_" x="246" y="-8" width="21.8" height="687.9"/>
					</defs>
					<clipPath id="SVGID_270_">
						<use xlink:href="#SVGID_269_"  overflow="visible"/>
					</clipPath>
					
						<line clip-path="url(#SVGID_270_)" fill="none" stroke="#FFFFFF" stroke-width="1.1464" x1="256.9" y1="0" x2="256.9" y2="678.7"/>
				</g>
			</g>
			<g opacity="0.5" clip-path="url(#SVGID_4_)">
				<g>
					<defs>
						<rect id="SVGID_271_" x="257.7" y="-8" width="21.8" height="687.9"/>
					</defs>
					<clipPath id="SVGID_272_">
						<use xlink:href="#SVGID_271_"  overflow="visible"/>
					</clipPath>
					
						<line clip-path="url(#SVGID_272_)" fill="none" stroke="#FFFFFF" stroke-width="1.1464" x1="268.6" y1="0" x2="268.6" y2="678.7"/>
				</g>
			</g>
			<g opacity="0.5" clip-path="url(#SVGID_4_)">
				<g>
					<defs>
						<rect id="SVGID_273_" x="269.4" y="-8" width="21.8" height="687.9"/>
					</defs>
					<clipPath id="SVGID_274_">
						<use xlink:href="#SVGID_273_"  overflow="visible"/>
					</clipPath>
					
						<line clip-path="url(#SVGID_274_)" fill="none" stroke="#FFFFFF" stroke-width="1.1464" x1="280.2" y1="0" x2="280.2" y2="678.7"/>
				</g>
			</g>
			<g opacity="0.5" clip-path="url(#SVGID_4_)">
				<g>
					<defs>
						<rect id="SVGID_275_" x="281" y="-8" width="21.8" height="687.9"/>
					</defs>
					<clipPath id="SVGID_276_">
						<use xlink:href="#SVGID_275_"  overflow="visible"/>
					</clipPath>
					
						<line clip-path="url(#SVGID_276_)" fill="none" stroke="#FFFFFF" stroke-width="1.1464" x1="291.9" y1="0" x2="291.9" y2="678.7"/>
				</g>
			</g>
			<g opacity="0.5" clip-path="url(#SVGID_4_)">
				<g>
					<defs>
						<rect id="SVGID_277_" x="292.7" y="-8" width="21.8" height="687.9"/>
					</defs>
					<clipPath id="SVGID_278_">
						<use xlink:href="#SVGID_277_"  overflow="visible"/>
					</clipPath>
					
						<line clip-path="url(#SVGID_278_)" fill="none" stroke="#FFFFFF" stroke-width="1.1464" x1="303.6" y1="0" x2="303.6" y2="678.7"/>
				</g>
			</g>
			<g opacity="0.5" clip-path="url(#SVGID_4_)">
				<g>
					<defs>
						<rect id="SVGID_279_" x="304.4" y="-8" width="21.8" height="687.9"/>
					</defs>
					<clipPath id="SVGID_280_">
						<use xlink:href="#SVGID_279_"  overflow="visible"/>
					</clipPath>
					
						<line clip-path="url(#SVGID_280_)" fill="none" stroke="#FFFFFF" stroke-width="1.1464" x1="315.3" y1="0" x2="315.3" y2="678.7"/>
				</g>
			</g>
			<g opacity="0.5" clip-path="url(#SVGID_4_)">
				<g>
					<defs>
						<rect id="SVGID_281_" x="316.1" y="-8" width="21.8" height="687.9"/>
					</defs>
					<clipPath id="SVGID_282_">
						<use xlink:href="#SVGID_281_"  overflow="visible"/>
					</clipPath>
					
						<line clip-path="url(#SVGID_282_)" fill="none" stroke="#FFFFFF" stroke-width="1.1464" x1="326.9" y1="0" x2="326.9" y2="678.7"/>
				</g>
			</g>
			<g opacity="0.5" clip-path="url(#SVGID_4_)">
				<g>
					<defs>
						<rect id="SVGID_283_" x="327.7" y="-8" width="21.8" height="687.9"/>
					</defs>
					<clipPath id="SVGID_284_">
						<use xlink:href="#SVGID_283_"  overflow="visible"/>
					</clipPath>
					
						<line clip-path="url(#SVGID_284_)" fill="none" stroke="#FFFFFF" stroke-width="1.1464" x1="338.6" y1="0" x2="338.6" y2="678.7"/>
				</g>
			</g>
			<g opacity="0.5" clip-path="url(#SVGID_4_)">
				<g>
					<defs>
						<rect id="SVGID_285_" x="339.4" y="-8" width="21.8" height="687.9"/>
					</defs>
					<clipPath id="SVGID_286_">
						<use xlink:href="#SVGID_285_"  overflow="visible"/>
					</clipPath>
					
						<line clip-path="url(#SVGID_286_)" fill="none" stroke="#FFFFFF" stroke-width="1.1464" x1="350.3" y1="0" x2="350.3" y2="678.7"/>
				</g>
			</g>
			<g opacity="0.5" clip-path="url(#SVGID_4_)">
				<g>
					<defs>
						<rect id="SVGID_287_" x="351.1" y="-8" width="21.8" height="687.9"/>
					</defs>
					<clipPath id="SVGID_288_">
						<use xlink:href="#SVGID_287_"  overflow="visible"/>
					</clipPath>
					<line clip-path="url(#SVGID_288_)" fill="none" stroke="#FFFFFF" stroke-width="1.1464" x1="362" y1="0" x2="362" y2="678.7"/>
				</g>
			</g>
			<g opacity="0.5" clip-path="url(#SVGID_4_)">
				<g>
					<defs>
						<rect id="SVGID_289_" x="362.8" y="-8" width="21.8" height="687.9"/>
					</defs>
					<clipPath id="SVGID_290_">
						<use xlink:href="#SVGID_289_"  overflow="visible"/>
					</clipPath>
					
						<line clip-path="url(#SVGID_290_)" fill="none" stroke="#FFFFFF" stroke-width="1.1464" x1="373.6" y1="0" x2="373.6" y2="678.7"/>
				</g>
			</g>
			<g opacity="0.5" clip-path="url(#SVGID_4_)">
				<g>
					<defs>
						<rect id="SVGID_291_" x="374.4" y="-8" width="21.8" height="687.9"/>
					</defs>
					<clipPath id="SVGID_292_">
						<use xlink:href="#SVGID_291_"  overflow="visible"/>
					</clipPath>
					
						<line clip-path="url(#SVGID_292_)" fill="none" stroke="#FFFFFF" stroke-width="1.1464" x1="385.3" y1="0" x2="385.3" y2="678.7"/>
				</g>
			</g>
			<g opacity="0.5" clip-path="url(#SVGID_4_)">
				<g>
					<defs>
						<rect id="SVGID_293_" x="386.1" y="-8" width="21.8" height="687.9"/>
					</defs>
					<clipPath id="SVGID_294_">
						<use xlink:href="#SVGID_293_"  overflow="visible"/>
					</clipPath>
					<line clip-path="url(#SVGID_294_)" fill="none" stroke="#FFFFFF" stroke-width="1.1464" x1="397" y1="0" x2="397" y2="678.7"/>
				</g>
			</g>
			<g opacity="0.5" clip-path="url(#SVGID_4_)">
				<g>
					<defs>
						<rect id="SVGID_295_" x="397.8" y="-8" width="21.8" height="687.9"/>
					</defs>
					<clipPath id="SVGID_296_">
						<use xlink:href="#SVGID_295_"  overflow="visible"/>
					</clipPath>
					
						<line clip-path="url(#SVGID_296_)" fill="none" stroke="#FFFFFF" stroke-width="1.1464" x1="408.7" y1="0" x2="408.7" y2="678.7"/>
				</g>
			</g>
			<g opacity="0.5" clip-path="url(#SVGID_4_)">
				<g>
					<defs>
						<rect id="SVGID_297_" x="409.4" y="-8" width="21.8" height="687.9"/>
					</defs>
					<clipPath id="SVGID_298_">
						<use xlink:href="#SVGID_297_"  overflow="visible"/>
					</clipPath>
					
						<line clip-path="url(#SVGID_298_)" fill="none" stroke="#FFFFFF" stroke-width="1.1464" x1="420.3" y1="0" x2="420.3" y2="678.7"/>
				</g>
			</g>
			<g opacity="0.5" clip-path="url(#SVGID_4_)">
				<g>
					<defs>
						<rect id="SVGID_299_" x="421.1" y="-8" width="21.8" height="687.9"/>
					</defs>
					<clipPath id="SVGID_300_">
						<use xlink:href="#SVGID_299_"  overflow="visible"/>
					</clipPath>
					<line clip-path="url(#SVGID_300_)" fill="none" stroke="#FFFFFF" stroke-width="1.1464" x1="432" y1="0" x2="432" y2="678.7"/>
				</g>
			</g>
			
				<rect x="94.6" y="1.2" clip-path="url(#SVGID_4_)" fill="none" stroke="#D8A64A" stroke-width="2.2928" width="67.8" height="676.4"/>
			
				<rect x="188" y="1.2" clip-path="url(#SVGID_4_)" fill="none" stroke="#D8A64A" stroke-width="2.2928" width="67.8" height="676.4"/>
			
				<rect x="281.4" y="1.2" clip-path="url(#SVGID_4_)" fill="none" stroke="#D8A64A" stroke-width="2.2928" width="67.8" height="676.4"/>
			
				<rect x="374.8" y="1.2" clip-path="url(#SVGID_4_)" fill="none" stroke="#D8A64A" stroke-width="2.2928" width="67.8" height="676.4"/>
			
				<rect x="374.8" y="1.2" clip-path="url(#SVGID_4_)" fill="none" stroke="#D8A64A" stroke-width="2.2928" width="67.8" height="676.4"/>
			
				<rect x="1.1" y="1.2" clip-path="url(#SVGID_4_)" fill="none" stroke="#D8A64A" stroke-width="2.2928" width="441.5" height="676.4"/>
			
				<rect x="1.1" y="1.2" clip-path="url(#SVGID_4_)" fill="none" stroke="#D8A64A" stroke-width="2.2928" width="441.5" height="676.4"/>
		</g>
	</g>
</g>
<line opacity="0.1" fill="none" stroke="#FFFFFF" stroke-miterlimit="10" x1="480" y1="678.7" x2="480" y2="0"/>
</svg>
