<?xml version="1.0" encoding="utf-8"?>
<!-- Generator: Adobe Illustrator 19.2.1, SVG Export Plug-In . SVG Version: 6.00 Build 0)  -->
<svg version="1.1" id="Слой_1" xmlns="http://www.w3.org/2000/svg" xmlns:xlink="http://www.w3.org/1999/xlink" x="0px" y="0px"
	 viewBox="0 0 99.4 99.4" style="enable-background:new 0 0 99.4 99.4;" xml:space="preserve">
<style type="text/css">
	.st0{fill:#00FF8B;}
</style>
<g>
	<path class="st0" d="M30.5,77.9l14.8,14.8c0.6,0.7,1.5,1.1,2.5,1.1c1,0,1.9-0.4,2.5-1.1l14.8-14.8c1.4-1.4,1.4-3.7,0-5.1
		c-1.4-1.4-3.7-1.4-5.1,0l-8.7,8.7V55.8c0-2-1.6-3.6-3.6-3.6s-3.6,1.6-3.6,3.6v25.7l-8.7-8.7c-0.7-0.7-1.6-1.1-2.5-1.1
		s-1.8,0.4-2.5,1.1C29.1,74.3,29.1,76.5,30.5,77.9z"/>
	<path class="st0" d="M79.5,33.2c-2.2,0-4.5,0.4-6.6,1.1c-1-1.1-2.1-2-3.3-2.9c0-0.5,0-0.9,0-1.4c0-13.5-10.9-24.4-24.4-24.4
		c-11.5,0-21.2,7.9-23.7,18.8C9.5,25.8,0,36.1,0,48.6C0,62.1,10.9,73,24.4,73h0.3c1.9,0,3.4-1.5,3.4-3.4c0-1.9-1.5-3.4-3.4-3.4h-0.3
		c-9.7,0-17.6-7.9-17.6-17.6c0-9.7,7.9-17.6,17.6-17.6c2.9,0,5.6,0.7,8.1,2c1.7,0.9,3.7,0.2,4.6-1.4c0.9-1.7,0.2-3.7-1.4-4.6
		c-2.2-1.1-4.6-2-7-2.4c2.3-7.1,9-12.2,16.7-12.2c9.7,0,17.6,7.9,17.6,17.6c0,0.9-0.1,1.7-0.2,2.6c0,0.1,0,0.1,0,0.2
		c0,0.2,0,0.3,0,0.5c0,0.1,0,0.3,0.1,0.4c0,0.1,0,0.2,0,0.3c0,0.1,0.1,0.3,0.1,0.4c0,0.1,0,0.2,0.1,0.2c0.1,0.1,0.1,0.2,0.2,0.3
		c0,0.1,0.1,0.2,0.1,0.2c0.1,0.1,0.2,0.2,0.3,0.3c0.1,0.1,0.1,0.1,0.2,0.2c0.2,0.2,0.4,0.3,0.6,0.4c1.9,1.2,3.6,2.7,4.9,4.5
		c0,0,0,0,0,0c0.2,0.2,0.3,0.4,0.5,0.5c0,0,0.1,0,0.1,0.1c0.2,0.1,0.3,0.2,0.5,0.3c0.1,0,0.2,0.1,0.2,0.1c0.1,0.1,0.3,0.1,0.4,0.2
		c0.1,0,0.2,0,0.3,0.1c0.1,0,0.3,0,0.4,0c0.1,0,0.1,0,0.2,0c0.1,0,0.1,0,0.2,0c0.1,0,0.1,0,0.2,0c0.2,0,0.3,0,0.5-0.1
		c0,0,0.1,0,0.1,0c0.2-0.1,0.4-0.1,0.6-0.2c1.8-0.9,3.8-1.4,5.9-1.4c7.2,0,13.1,5.9,13.1,13.1c0,7.2-5.9,13.1-13.1,13.1h-8.8
		c-1.9,0-3.4,1.5-3.4,3.4c0,1.9,1.5,3.4,3.4,3.4h8.8c11,0,19.9-8.9,19.9-19.9C99.4,42.1,90.5,33.2,79.5,33.2z"/>
</g>
</svg>
