<?xml version="1.0" encoding="utf-8"?>
<!-- Generator: Adobe Illustrator 19.2.1, SVG Export Plug-In . SVG Version: 6.00 Build 0)  -->
<svg version="1.1" id="Слой_1" xmlns="http://www.w3.org/2000/svg" xmlns:xlink="http://www.w3.org/1999/xlink" x="0px" y="0px"
	 viewBox="0 0 72 44" style="enable-background:new 0 0 72 44;" xml:space="preserve">
<style type="text/css">
	.st0{fill:none;}
	.st1{fill:#FFFFFF;}
</style>
<g>
	<g>
		<line class="st0" x1="68" y1="21" x2="49" y2="4"/>
		<path class="st1" d="M65.3,24l-19-17c-1.6-1.5-1.8-4-0.3-5.7c1.5-1.6,4-1.8,5.7-0.3l19,17c1.6,1.5,1.8,4,0.3,5.7
			c-0.8,0.8-1.9,1.3-3,1.3C67.1,25,66.1,24.6,65.3,24z"/>
	</g>
	<g>
		<line class="st0" x1="68" y1="21" x2="51" y2="40"/>
		<path class="st1" d="M48.3,42.9c-1.6-1.4-1.8-4-0.3-5.6l17-19c1.5-1.6,4-1.8,5.7-0.3c1.6,1.5,1.8,4,0.3,5.7l-17,19
			c-0.8,0.8-1.9,1.3-3,1.3C50.1,44,49.1,43.7,48.3,42.9z"/>
	</g>
</g>
<g>
	<line class="st0" x1="68" y1="20.8" x2="4" y2="20.8"/>
	<path class="st1" d="M0,20.8c0-2.2,1.8-4,4-4h64c2.2,0,4,1.8,4,4s-1.8,4-4,4H4C1.8,24.8,0,23,0,20.8z"/>
</g>
</svg>
