<?xml version="1.0" encoding="utf-8"?>
<!-- Generator: Adobe Illustrator 19.0.0, SVG Export Plug-In . SVG Version: 6.00 Build 0)  -->
<svg version="1.1" id="Layer_1" xmlns="http://www.w3.org/2000/svg" xmlns:xlink="http://www.w3.org/1999/xlink" x="0px" y="0px"
	 viewBox="0 0 100 100" style="enable-background:new 0 0 100 100;" xml:space="preserve">
<style type="text/css">
	.st0{fill:none;stroke:#FF0000;stroke-width:2;stroke-miterlimit:10;}
	.st1{fill:#FF0000;}
</style>
<g id="XMLID_436_">
	<g id="XMLID_104_">
		<line id="XMLID_109_" class="st0" x1="12.2" y1="50" x2="86.6" y2="50"/>
		<g id="XMLID_107_">
			<rect id="XMLID_108_" x="10" y="47.7" class="st1" width="4.6" height="4.6"/>
		</g>
		<g id="XMLID_105_">
			<polygon id="XMLID_106_" class="st1" points="80.6,55.1 85.7,50 80.6,44.9 84.9,44.9 90,50 84.9,55.1 			"/>
		</g>
	</g>
</g>
</svg>
