<?xml version="1.0" encoding="utf-8"?>
<!-- Generator: Adobe Illustrator 19.0.0, SVG Export Plug-In . SVG Version: 6.00 Build 0)  -->
<svg version="1.1" id="Layer_1" xmlns="http://www.w3.org/2000/svg" xmlns:xlink="http://www.w3.org/1999/xlink" x="0px" y="0px"
	 viewBox="0 0 236 308" style="enable-background:new 0 0 236 308;" xml:space="preserve">
<style type="text/css">
	.st0{fill:#EEA83D;}
	.st1{fill:#FFFFFF;}
	.st2{font-family:'BebasNeueBold';}
	.st3{font-size:54.5504px;}
</style>
<g id="XMLID_1_">
	<g id="XMLID_48_">
		<path id="XMLID_52_" class="st0" d="M183.4,85.2c0-47-29.3-85.2-65.4-85.2S52.6,38.2,52.6,85.2s29.3,85.2,65.4,85.2
			S183.4,132.2,183.4,85.2z M101.7,13.5c-0.2,2.2-0.1,6.9,5.1,7.9c5.9,1.1,11-3.2,11.2,1.1c0.1-8-11.7,0.3-11.1-7.4
			c0.4-5.5,9.8,0.5,15.2-0.6c2.2-0.5,2.8-2.3,3-3.6c28.4,4.5,50.4,36.1,50.4,74.3c0,24-8.7,45.5-22.2,59.1c-6.1,6.2-12.1,5-12.1,5
			c-3.7,0.1-4.5-5.4-4.8-7.4l0-0.3c-0.1-1-0.9-1.5-1.8-2.1c-0.8-0.5-1.7-1.1-2.4-2.1c-1-1.5-0.6-2.7-0.2-3.9c0.2-0.5,0.3-1,0.4-1.5
			c0.1-0.4,0-0.7-0.1-1c-0.4-0.7-1.3-0.8-2.1-1c-0.4-0.1-0.7-0.1-1-0.2c-0.6-0.2-0.6-1.9-0.6-3.6c0-0.9,0-1.8-0.1-2.5
			c-0.2-1-1-1.5-2-2c-1.1-0.5-2.3-1.2-2.7-2.6c-0.5-1.8,0.4-6.5,1.1-10.3c0.4-2.1,0.7-3.9,0.8-5c0.3-3.5,0-6.1-1.1-10.4
			c-1.2-4.6-0.9-12.3-0.2-15.4c0.7-3.1,0.9-7.7-0.1-9.9c-1.5-3.4-1.6-6.9-1.4-11.7c0.1-3.5,1.9-3.4,5.3-3.3c1.2,0,2.6,0.1,4.1,0
			c2.1-0.1,3.6-0.9,4.5-2.3c1-1.5,0.9-3.1,0.9-3.2l0-0.2l-15.2-0.2l0-2.5c2.1-1.3,2-4.6,2-4.6l0-0.2l-2-0.1c0.1-1.8,1-2.8,2-3.8
			c0.8-0.9,1.6-1.7,1.9-3.1c0.2-0.8,0.1-1.5-0.3-2.1c-0.6-1.1-1.9-1.5-2.3-1.6c0-2.6-1.8-3.4-1.8-3.4c-4.1-2.4-7.8,0-7.8,0
			c0,0-1.9,0.8-1.9,3.4c-0.4,0.1-1.7,0.4-2.3,1.6c-0.3,0.6-0.4,1.3-0.3,2.1c0.3,1.4,1.1,2.3,1.9,3.1c1,1,1.9,2,2,3.8l-2,0.1l0,0.2
			c0,0-0.1,3.3,2,4.6l0,2.5l-15.2,0.2l0,0.2c0,0.1-0.1,1.7,0.9,3.2c0.9,1.4,2.4,2.2,4.5,2.3c1.5,0.1,2.9,0.1,4.1,0
			c3.4-0.1,5.2-0.2,5.3,3.3c0.2,4.8,0,8.3-1.4,11.7c-0.9,2.2-0.7,6.8-0.1,9.9c0.7,3.1,0.9,10.8-0.2,15.4c-1.1,4.3-1.4,7-1.1,10.4
			c0.1,1.1,0.4,2.9,0.8,5c0.7,3.8,1.6,8.5,1.1,10.3c-0.4,1.5-1.6,2.1-2.7,2.6c-0.9,0.5-1.8,1-2,2c-0.1,0.7-0.1,1.6-0.1,2.5
			c0,1.6,0,3.3-0.6,3.6c-0.3,0.1-0.6,0.2-1,0.2c-0.9,0.2-1.8,0.3-2.1,1c-0.2,0.3-0.2,0.6-0.1,1c0.1,0.5,0.2,1,0.4,1.5
			c0.4,1.2,0.8,2.4-0.2,3.9c-0.7,1-1.6,1.6-2.4,2.1c-0.9,0.6-1.7,1.1-1.8,2.1l0,0.3c-0.3,2.1-1,7.5-4.8,7.4c0,0-6.1,0.8-11.9-5
			c-13.7-13.6-22.2-35.1-22.2-59.1C60.6,51.4,77.9,22.7,101.7,13.5z"/>
		<path id="XMLID_51_" class="st0" d="M97.8,93.5c1.9,4.5,6.6,3.4,6.6,3.4c-0.8-1.8-1.9-3.3-3.1-4c-2.1-1.1-4.4-0.6-4.4-0.6
			C97,92.7,97.5,93,97.8,93.5z"/>
		<path id="XMLID_50_" class="st0" d="M131.9,96.9c0,0,4.7,1.1,6.6-3.4c0.2-0.5,0.7-0.8,0.9-1.1c0,0-2.3-0.5-4.4,0.6
			C133.8,93.6,132.7,95.1,131.9,96.9z"/>
		<text id="XMLID_49_" transform="matrix(0.7676 0 0 1 28 251.3574)"><tspan x="0" y="0" class="st1 st2 st3">Уникальные</tspan><tspan x="11.8" y="46.9" class="st1 st2 st3">Кальянные</tspan></text>
	</g>
</g>
</svg>
